<svg xmlns="http://www.w3.org/2000/svg" viewBox="0 0 400 460.02455">
  <defs>
    <style>
      .cls-1 {
        fill: #344566;
      }
    </style>
  </defs>
  <title>Asset 4</title>
  <g id="Layer_2" data-name="Layer 2">
    <g id="Layer_1-2" data-name="Layer 1">
      <g>
        <g>
          <path class="cls-1" d="M45.304,230.00669c-5.86083,2.26542-9.94584,5.68476-12.09167,11.00439-.859.04608-.93992-.55012-1.099-1.01347a16.10664,16.10664,0,0,0-7.51039-9.16384c-.97928-.54962-1.54684-.97917-.17142-1.77,3.67392-2.11234,5.85486-5.47131,7.57029-9.21052.62249-1.35687.9401-1.49684,1.34231-.72617a22.72418,22.72418,0,0,0,4.68771,6.532C39.98552,227.43543,42.38147,228.50848,45.304,230.00669Zm-8.38512-.05464-3.84076-3.52216c-1.07989,1.18269-3.00875,2.37184-2.99977,3.54619.00889,1.1635,2.13707,3.36459,3.03874,3.22274C34.50087,232.98115,35.6304,231.14737,36.91889,229.95205Z"/>
          <path class="cls-1" d="M366.92545,242.0888c-2.43593-5.951-6.44627-9.64665-12.65448-11.90819,6.12279-2.4103,10.22873-5.92354,12.605-11.86811.64281,1.49805,1.04717,2.484,1.48572,3.45462a16.18346,16.18346,0,0,0,6.87238,7.50083c.54681.31528,1.743.74774.41564,1.4986C371.37992,233.182,369.09443,237.16156,366.92545,242.0888Zm-.13164-8.50845c.99467-1.04458,2.95158-2.19651,2.95609-3.356.0046-1.1814-2.01362-3.40148-2.962-3.30752-1.33038.1318-2.49052,1.98215-3.7235,3.09745C364.27081,231.16785,365.47722,232.32144,366.79381,233.58035Z"/>
          <path class="cls-1" d="M122.81941,96.28437c-2.81713-1.67629-5.00833-3.36966-7.6754-4.1813a22.44055,22.44055,0,0,0-8.19354-.75c-.409-.72774.18266-1.02423.48539-1.38692a16.79557,16.79557,0,0,0,4.1459-11.14968c-.00332-.62963-.28351-1.87211,1.071-1.07912,4.04314,2.367,8.40547,2.51419,12.88329,2.03669a5.02884,5.02884,0,0,1,.97564.16252C123.09255,84.783,121.53791,90.01052,122.81941,96.28437Zm-4.69985-6.82756a7.89261,7.89261,0,0,0,1.28263-4.80419c-.10041-1.75571-2.65422-1.51914-3.77029-1.47576-1.92688.0749-1.87836,2.82-1.806,3.8251C113.95875,88.84671,116.70741,87.91594,118.11956,89.45681Z"/>
          <path class="cls-1" d="M199.85477,381.82414a27.09935,27.09935,0,0,1-2.95384-4.69764q-19.91678-34.41552-39.77254-68.86623a4.03182,4.03182,0,0,0-4.07836-2.30014q-41.15481.10637-82.31.02734c-.76173-.00069-1.79443.47505-2.258-.40348-.38594-.73145.41362-1.37445.77366-1.99741q20.68464-35.79051,41.432-71.54466a3.59312,3.59312,0,0,0-.032-4.1161q-20.71344-35.64475-41.3525-71.33274c-1.49515-2.581-1.48675-2.602,1.44351-2.60211q41.15508-.00149,82.31.04944a4.05016,4.05016,0,0,0,4.09518-2.28917q20.672-35.93026,41.46766-71.78935c1.25509-2.17011,1.28782-2.16931,2.58959.07867q20.82871,35.968,41.61511,71.96045a3.51411,3.51411,0,0,0,3.54415,2.02488q40.92939-.0786,81.85906-.03618c.22551,0,.451-.001.6765-.00118,3.08721-.00264,3.09173,0,1.58316,2.60746q-6.48686,11.21187-12.97971,22.42025-14.15868,24.47223-28.35364,48.92329a3.66186,3.66186,0,0,0,.05963,4.26841q20.55142,35.34886,40.97337,70.77286c.4999.866,1.66913,1.81385,1.0786,2.74807-.46071.72883-1.82539.26567-2.78267.2662q-40.92955.02255-81.859-.03205a3.8813,3.8813,0,0,0-3.90089,2.22174q-20.78716,36.12365-41.69615,72.1772C200.73247,380.87045,200.551,381.479,199.85477,381.82414Zm-.11642-216.85089c-11.72446,0-23.44924.04133-35.1731-.0429a3.727,3.727,0,0,0-3.72069,2.1796q-17.51882,30.45362-35.17732,60.82672a3.51166,3.51166,0,0,0-.06,4.08309q17.852,30.65193,35.53788,61.40036a3.05249,3.05249,0,0,0,3.074,1.68816q35.62419-.04249,71.2484.00553a3.40254,3.40254,0,0,0,3.35922-1.98868q17.70141-30.73992,35.52216-61.41093a2.87458,2.87458,0,0,0,.06824-3.28825q-17.86352-30.77485-35.63078-61.60547a3.39286,3.39286,0,0,0-3.42386-1.876C223.488,165,211.6131,164.97457,199.73835,164.97325Zm.27622-65.061a15.40537,15.40537,0,0,0-.9773,1.29506q-14.73053,25.44068-29.46676,50.878c-1.34078,2.30585.30512,1.88329,1.52428,1.8839q28.86395.01443,57.72785.00432c2.45032-.00063,2.45957-.02394,1.26989-2.0809q-11.78534-20.3772-23.578-40.75014C204.38451,107.46132,202.25364,103.78068,200.01457,99.91221Zm-.11064,206.14113q-14.42121,0-28.84242.00391c-2.44961.00245-2.5119.0887-1.34543,2.11058q14.45351,25.05279,28.93558,50.08914c1.16724,2.01789,1.30587,2.00379,2.50538-.06717q14.44074-24.93227,28.8694-49.87153c1.27262-2.19958,1.2406-2.259-1.28011-2.26118Q214.32512,306.04494,199.90393,306.05334Zm81.68941-64.72671c-.50528.78841-.97505,1.46114-1.38433,2.16883q-14.20207,24.55586-28.39006,49.11985c-1.41235,2.44529-1.39481,2.47273,1.42945,2.47356q28.51176.00822,57.02349.00517c2.67286-.00022,2.68486-.03721,1.334-2.36812q-13.3778-23.08375-26.7575-46.16643A30.68291,30.68291,0,0,0,281.59334,241.32663ZM118.04845,295.0922c9.69414,0,19.38837-.02158,29.08233.01938,1.79983.0076,2.08409-.37931,1.13553-2.01128q-14.54388-25.02249-28.95966-50.11923c-1.01646-1.76832-1.49587-1.50009-2.40858.08847Q102.64828,267.87141,88.30212,292.618c-1.42,2.45834-1.41056,2.47488,1.34026,2.47642Q103.84542,295.10222,118.04845,295.0922ZM118.21222,164.97q-14.30642,0-28.61284.00531c-2.659.00377-2.68986.05118-1.34485,2.38261q14.33836,24.8542,28.6733,49.71031c.99073,1.72571,1.48095,1.5796,2.39915-.01655q14.30892-24.87448,28.68946-49.70779c1.32087-2.28755,1.27844-2.3622-1.41665-2.36459Q132.406,164.96681,118.21222,164.97Zm163.19255,53.59375c.83129-.27056,1.0241-.87128,1.319-1.38106q14.53555-25.13221,29.10036-50.24738c1.22326-2.09912.13236-1.97788-1.3805-1.97636q-28.61341.02875-57.22686.01861c-2.85711.00075-2.85447.0094-1.455,2.42465q9.98565,17.23458,19.96889,34.47056Q276.576,210.23622,281.40477,218.56374ZM245.07238,302.1353q38.66176,0,77.32346-.02083c1.09658-.00116,3.19108.7337,1.662-1.89971q-18.71616-32.23362-37.37339-64.50137c-.33039-.56917-.46861-1.97552-1.53386-1.32071A2.3524,2.3524,0,0,0,284.057,237.113a7.845,7.845,0,0,0,.72283,1.39771q16.58892,28.65227,33.17148,57.30815c.5129.88736,1.661,1.924,1.21982,2.73386-.56471,1.03662-2.06234.43054-3.13921.43109q-74.61835.03724-149.23667.05916c-.8118.00068-2.37935-.70384-2.37082.65723a2.346,2.346,0,0,0,2.64883,2.44284c.44642-.04427.90108-.005,1.35193-.005Q206.7488,302.13815,245.07238,302.1353ZM154.65183,157.934q-38.66227,0-77.32453.00213c-2.54889.00035-2.62124.10331-1.39123,2.23057q18.54528,32.073,37.13646,64.1194c.35149.60512.56011,2.08351,1.51515,1.48938a2.332,2.332,0,0,0,1.03846-3.107c-.17534-.33121-.38277-.64531-.57054-.9701q-16.51236-28.56246-33.00749-57.13489c-.57381-.99526-1.9043-2.09338-1.3031-3.10565.59866-1.008,2.21594-.40981,3.37476-.41025q74.50653-.02866,149.01307-.04182c.75911-.00048,2.21573.5758,2.17818-.655a2.29992,2.29992,0,0,0-2.43359-2.41449c-.52438.02842-1.05179-.00067-1.57779-.00067Q192.97574,157.93528,154.65183,157.934Zm87.52672,137.33618c2.21747.59248,3.46931.19828,4.61147-1.78327q38.41054-66.63745,76.96736-133.19066c1.35438-2.34176,1.34755-2.35849-1.319-2.3586q-37.086-.00147-74.172.0329c-.68306.001-1.96171-.58381-1.95694.6477a2.42223,2.42223,0,0,0,1.79141,2.34634,8.8938,8.8938,0,0,0,2.02061.07361q33.36618.00324,66.73232.001c2.94324,0,2.953.007,1.4678,2.57392Q283.4105,223.9498,248.496,284.2845C246.40488,287.89863,244.33246,291.52363,242.17855,295.27017ZM114.11445,302.135q18.6004,0,37.20073-.0231c.72378-.00187,2.02528.46168,2.05032-.60278a2.30885,2.30885,0,0,0-2.11933-2.48746c-.52193-.04749-1.05138-.01407-1.5774-.01409q-31.5643-.00059-63.12864-.00067c-1.50305,0-3.00862-.05758-4.5085.01082-1.7279.07887-1.74887-.6145-.98158-1.84077.63671-1.01757,1.20993-2.07487,1.81137-3.11449q36.82706-63.65912,73.62405-127.33547c.32913-.56991,1.52877-1.43075.38889-1.99891a2.1926,2.1926,0,0,0-3.03113.53084c-.20138.31638-.3882.64224-.57613.967q-38.642,66.77033-77.28163,133.54206c-1.32012,2.28135-1.27525,2.36234,1.3791,2.36361Q95.73951,302.14042,114.11445,302.135Zm165.42607-78.71159c-.36833-.6935-.73043-1.43095-1.141-2.14036q-38.57426-66.65733-77.156-133.31031c-1.33874-2.313-1.40483-2.315-2.71478-.04922q-12.90646,22.3245-25.81156,44.64975Q166.97,142.517,161.23747,152.46915c-.28731.49945-.89984,1.01-.55529,1.61573.40339.70909,1.22086.32418,1.85905.38341.88.08166,1.36517-.47736,1.75612-1.167.59227-1.0448,1.19318-2.08471,1.79442-3.12439q16.23339-28.07259,32.47025-56.14318c1.289-2.22789,1.36344-2.22021,2.59455-.093q14.88885,25.72652,29.77882,51.4524,22.83822,39.46943,45.69261,78.92951c.34.58659.46153,1.77875,1.33475,1.52753C278.90357,225.57947,279.1481,224.41759,279.54052,223.42344ZM122.08874,233.8558c-1.824,1.58259-2.07439,3.13052-.6881,4.97335a33.83555,33.83555,0,0,1,2.07662,3.478q37.55031,64.93152,75.09908,129.864c1.24383,2.15082,1.34736,2.14864,2.61423-.03626q15.4235-26.5998,30.84049-53.20338c2.29594-3.96264,4.55041-7.94947,6.869-11.89872.68506-1.16695.4634-1.43066-.8828-1.56875-1.78495-.183-2.34415.97287-3.02275,2.14587q-16.86255,29.14836-33.72826,58.29484c-1.39146,2.40432-1.39592,2.39711-2.812-.05225q-33.87695-58.596-67.7576-117.18979C127.84589,243.733,124.97306,238.81605,122.08874,233.8558Z"/>
          <path class="cls-1" d="M170.87129,87.12755c1.41139.18617,2.82788.34037,4.2331.565,3.1322.50072,3.17478.61923,2.46288,3.78088a13.50762,13.50762,0,0,1-5.74458,8.31664,6.23854,6.23854,0,0,0-2.27814,2.6556,13.648,13.648,0,0,1-8.90235,7.69838c-.86754.26-1.56117.39584-1.982-.71158-1.34549-3.54081-2.36254-7.13789-1.94577-10.97467C157.48361,91.377,162.80183,87.17441,170.87129,87.12755Zm-3.47057,8.74393c-.45091-1.02443.63673-2.97005-1.3424-3.39566-1.71789-.36944-4.78014,3.19706-4.76846,5.2943.01007,1.80825,1.44932,1.17186,2.31142,1.17933C166.96917,98.97867,167.43717,98.56872,167.40072,95.87148Zm4.46029-4.9c-.68941.10382-1.84922-.40021-1.58553.859.26058,1.24437.02158,3.49223,1.03211,3.5173,1.3541.03359,2.14509-1.94443,2.4286-3.32344C174.042,90.53689,172.45355,91.40333,171.861,90.97149Zm-6.78018,11.74479c-.05344-.4168-.66-.47678-1.0785-.32327-1.10274.40455-2.82234-1.08333-3.30669.86625a2.35382,2.35382,0,0,0,1.0399,2.48911C162.298,106.06807,164.95359,103.81131,165.08083,102.71628Z"/>
          <path class="cls-1" d="M229.009,87.23389c9.79362.06066,15.12233,6.08,13.91906,15.56238a25.93748,25.93748,0,0,1-1.08153,4.5882c-1.113,3.48349-1.263,3.506-4.67607,2.01014a13.32058,13.32058,0,0,1-6.86555-6.82039,6.66722,6.66722,0,0,0-2.40882-2.85069,13.7396,13.7396,0,0,1-5.96466-9.65865c-.2259-1.36215.184-1.97769,1.49092-2.16814A28.76694,28.76694,0,0,1,229.009,87.23389Zm7.31915,11.74533c2.36323.028,2.61236-.34395,1.818-2.602a6.39846,6.39846,0,0,0-3.82874-3.82471,1.02427,1.02427,0,0,0-1.57518.625C231.10361,96.94378,232.30661,98.93165,236.32818,98.97922Zm-7.56093-3.326c.24318-1.13452.41953-2.08255.65327-3.01621.29945-1.19592.14887-1.82759-1.36564-1.68316-2.35692.22477-2.53178.43344-1.37572,2.48919A4.3457,4.3457,0,0,0,228.76725,95.65321Zm5.73214,6.70594a4.38731,4.38731,0,0,0,1.864,2.51877c1.7354,1.43245,2.11071,1.21,2.6792-1.03354.32931-1.29964-.091-1.567-1.24909-1.49805C236.7672,102.40744,235.73438,102.35915,234.49939,102.35915Z"/>
          <path class="cls-1" d="M102.22319,334.32525a12.71967,12.71967,0,0,1-10.06213-5.35872,26.45992,26.45992,0,0,1-3.84372-7.59367c-.45874-1.31265-.0526-1.83122,1.18392-2.31885a13.66556,13.66556,0,0,1,11.145.23325,7.3726,7.3726,0,0,0,3.87851.73442,13.67921,13.67921,0,0,1,10.91678,3.83628c.56121.52633,1.21138,1.02976.55251,1.87892C112.43674,330.32165,108.29406,333.96733,102.22319,334.32525Zm-.39-4.356c1.82536.00969,3.01109-.37149,3.22732-1.03748.34507-1.06269-2.47518-4.71222-3.5861-4.64062-.99282.064-4.57006,2.70254-4.29723,3.256.78351,1.58941,2.32728,2.14212,3.98745,2.39114A5.71542,5.71542,0,0,0,101.83321,329.96929Zm-4.05266-7.82264a5.88628,5.88628,0,0,0-4.22158-.66288c-.4937.07276-1.14731.26468-.83773.99643a5.75758,5.75758,0,0,0,1.37805,2.476c.55483.39451,1.16327-.69381,1.72876-1.14649C96.4486,323.313,97.04028,322.78018,97.78055,322.14665Zm8.71543,1.549c.618,1.19731,1.21329,2.36782,1.82584,3.52921.25871.49049.72363.63887,1.0881.24158.641-.69869,1.7825-1.19441,1.75266-2.19486-.0272-.91176-1.17171-1.04995-1.91144-1.264A4.02216,4.02216,0,0,0,106.496,323.69565Z"/>
          <path class="cls-1" d="M295.15,319.98407c1.43025.38121,2.92846-.21122,4.47479-.88665a13.57364,13.57364,0,0,1,10.93808.0544c1.09848.44529,1.3298,1.01939.97091,2.06708a23.82889,23.82889,0,0,1-4.82363,8.81525c-4.25266,4.572-9.55715,5.488-15.12184,2.64316a24.37,24.37,0,0,1-7.43571-6.43331c-.7754-.92541-.7073-1.56821.22791-2.434A14.32678,14.32678,0,0,1,295.15,319.98407Zm2.69607,9.99527a6.03948,6.03948,0,0,0,4.10666-1.48313c.5463-.39555.81654-.78182.40838-1.48024-1.75954-3.01093-4.90137-3.16768-6.73658-.3101-.12052.18763-.24249.37479-.35214.56878-1.03748,1.83582-.84084,2.25438,1.24116,2.591C296.95233,329.93662,297.40156,329.94314,297.846,329.97934Zm-4.69292-5.86647c-.14475-.71367-.628-.638-1.0472-.51475-1.30056.38228-3.156.28417-3.40263,1.89062-.127.82678,1.37164,2.37361,2.22022,2.06172C292.20366,327.08,292.31779,325.21423,293.15311,324.11287Zm14.01928-1.68034c-.42536-1.377-1.53895-1.04637-2.41244-1.03052-.89767.0163-2.63964.08776-2.34983.82353a4.958,4.958,0,0,0,3.03241,2.69651C306.50787,325.16518,306.49041,323.25928,307.17239,322.43253Z"/>
          <path class="cls-1" d="M228.2372,372.7567c-.43148-.03914-1.48217-.09307-2.52064-.23586-4.38249-.60248-4.537-.83759-3.19176-5.103a13.24711,13.24711,0,0,1,5.49118-7.18639,6.04158,6.04158,0,0,0,2.26969-2.673,13.69408,13.69408,0,0,1,8.26094-7.46409c1.51831-.54633,2.36136-.39443,2.86438,1.22453a37.9286,37.9286,0,0,1,1.43319,5.1931C244.45174,366.49146,238.95232,372.88622,228.2372,372.7567Zm4.05978-8.75513c.3164,1.114-.40045,3.08648,1.35578,3.6051,1.74008.51384,4.96636-3.27509,4.89548-5.43117-.0536-1.62938-1.37354-1.09644-2.20189-1.11276C233.13628,360.99934,232.29153,361.61043,232.297,364.00157Zm2.242-6.276c1.20408,0,2.24654-.0616,3.27856.01591,1.236.09286,1.56979-.24711,1.23882-1.532-.60994-2.36763-.98614-2.55677-2.83308-.91291A3.85413,3.85413,0,0,0,234.539,357.72559Zm-5.2254,10.47861c-.50371-1.23117.05178-3.10591-1.29329-3.08785-1.09746.01473-1.7218,1.76656-2.06929,2.945-.20574.69773.68936,1.07109,1.41192.98644A2.39335,2.39335,0,0,0,229.31357,368.2042Z"/>
          <path class="cls-1" d="M76.62624,200.64784c-.07417,4.88668-.57017,5.24359-5.38614,4.0295a19.56239,19.56239,0,0,1-7.4985-3.43192c-4.64468-3.65536-5.92614-8.92495-3.62487-14.73686a19.06243,19.06243,0,0,1,3.1941-5.39544c2.99637-3.50861,2.23588-3.784,5.96961-.27093,2.39864,2.25687,3.3162,5.31794,3.61281,8.51172a6.471,6.471,0,0,0,1.23183,3.27945A13.125,13.125,0,0,1,76.62624,200.64784ZM63.27968,192.0213c-.03369,2.16055,1.80807,5.42342,3.05,5.57582.77567.09516,2.71751-3.01844,2.82623-4.53168.07471-1.03983-3.16144-3.237-4.68761-3.122C62.94939,190.05783,63.54376,191.36843,63.27968,192.0213Zm8.603,4.19106c-.72389,1.11211-1.414,2.15229-2.0812,3.207-.276.43635-.29809.93114.267,1.09757.91853.27054,1.91713,1.01913,2.783.52114.79125-.45507.28256-1.52792.18686-2.30827A3.62783,3.62783,0,0,0,71.88272,196.21236Zm-2.9986-8.41546a4.82238,4.82238,0,0,0-.88027-2.90717c-1.18109-2.03139-1.48025-1.99871-2.8429-.07328-.78195,1.1049-.756,1.67032.68254,1.97793A29.34419,29.34419,0,0,1,68.88412,187.7969Z"/>
          <path class="cls-1" d="M170.6462,372.76513c-10.90692-.017-16.35721-7.89846-13.10189-18.94389,1.36531-4.63253,2.12938-4.93151,6.41954-2.48774a12.91418,12.91418,0,0,1,5.47764,6.08612,6.98706,6.98706,0,0,0,2.57874,2.97443,13.71949,13.71949,0,0,1,5.84387,9.72489c.18838,1.28746-.25075,1.82461-1.41,2.01626A29.81162,29.81162,0,0,1,170.6462,372.76513Zm-3.20273-8.603c-.19432-.87682.30111-1.86957-.63727-2.5189-.92067-.63711-5.22837-.90206-5.40331-.25386-.4761,1.76424.46051,3.19424,1.57479,4.41927.90345.99329,2.14829,2.15734,3.4303,1.71987C167.76731,367.06454,167.13125,365.304,167.44347,364.16209Zm-1.98-6.45467a7.6816,7.6816,0,0,0-2.9218-3.19209c-.55636-.39145-1.0849-.52942-1.38645.32681-.29812.84646-.86633,1.74167-.41828,2.58205.35456.665,1.241.24979,1.89112.27544C163.44693,357.732,164.268,357.70742,165.46349,357.70742Zm6.33206,11.387c.66287-.34427,2.15148.40334,1.9549-1.02482-.18848-1.36965-1.16143-3.33692-2.2497-3.30127-1.50567.04933-.81673,2.17532-1.19026,3.35523C169.911,369.3857,171.14244,368.91924,171.79555,369.0944Z"/>
          <path class="cls-1" d="M104.47352,140.04455c-1.2451-.39361-2.5192.12525-3.8557.7387a13.44934,13.44934,0,0,1-11.14528.18779c-1.08949-.4461-1.61618-.85008-1.19912-2.12016a22.6361,22.6361,0,0,1,5.25666-9.31959,11.75923,11.75923,0,0,1,13.86378-2.56256,23.05951,23.05951,0,0,1,8.37958,7.0167,1.3322,1.3322,0,0,1-.16851,2.1104A14.61841,14.61841,0,0,1,104.47352,140.04455ZM101.969,130.01109c-2.029.01361-4.88324,1.56567-4.81134,2.51792.05681.75254,3.38741,3.20948,4.39359,3.24109.9359.0294,3.68976-3.11378,3.47548-4.28036C104.69087,129.66141,102.92716,130.40017,101.969,130.01109Zm4.2365,6.737a32.879,32.879,0,0,0,3.30108-.797c2.15708-.78835,2.17547-1.19011.54083-2.82369-.95714-.95651-1.50774-1.026-2.05253.34724A33.38586,33.38586,0,0,1,106.20548,136.74805Zm-8.46181,1.11924c-.98394-.85792-1.92048-1.68732-2.87288-2.49806-.34011-.28953-.8-.62276-1.11256-.07684-.47.82089-1.20315,1.71321-.94542,2.63674.257.921,1.39048.72919,2.1484.71434A3.88687,3.88687,0,0,0,97.74367,137.86729Z"/>
          <path class="cls-1" d="M323.15055,200.4256a13.16637,13.16637,0,0,1,2.63972-7.97762,6.61777,6.61777,0,0,0,1.20617-3.51862,13.23648,13.23648,0,0,1,5.50258-9.9003c.58662-.44,1.13346-1.096,1.92718-.30386,3.33692,3.33058,7.65929,10.01037,6.02677,15.92633-1.43449,5.19834-5.21145,7.82668-9.97539,9.45737a15.96834,15.96834,0,0,1-1.94079.56069C323.66852,205.67079,323.59449,206.423,323.15055,200.4256Zm13.29051-8.02919c-.02973-2.66361-.42589-2.95694-2.646-1.94772-1.23248.56025-2.88716.7875-3.16856,2.48131-.19283,1.16073,2.06284,4.8914,2.6817,4.6381a5.3412,5.3412,0,0,0,3.00862-3.9148A6.12964,6.12964,0,0,0,336.44106,192.39641Zm-8.59313,8.714c.56543-.55178,2.41262.0371,2.14124-1.34377-.2377-1.20958-1.09289-3.276-2.15533-3.18637-1.22638.10349-1.02421,2.17538-1.2786,3.4371C326.39076,200.83326,326.75518,201.30787,327.84793,201.11041Zm7.47656-15.09994c-.6232-1.05448-1.117-2.635-2.06664-2.51521-1.49485.18862-1.78282,1.95618-2.26272,3.25193-.149.40228-.13,1.08671.51745.86229C332.7801,187.17014,334.19207,186.98707,335.32449,186.01047Z"/>
          <path class="cls-1" d="M295.21363,140.06163a14.36734,14.36734,0,0,1-10.9264-3.89774c-.69971-.64454-1.02922-1.21776-.33471-2.0899,2.65714-3.33678,5.65764-6.27588,9.79949-7.64021,4.90384-1.61534,9.17944-.3532,12.73471,3.32644a23.12986,23.12986,0,0,1,5.06778,9.17813c.37851,1.15459-.15752,1.5852-1.13677,1.99761a13.52739,13.52739,0,0,1-11.348-.18587C297.72945,140.13386,296.454,139.607,295.21363,140.06163Zm7.476-7.53792c-.61834-1.38241-1.94131-1.82427-3.16176-2.23734-1.6157-.54685-3.68047-.6489-4.63336.61978-.88563,1.1791.79763,2.47636,1.58975,3.58183.53335.74435,1.07059,1.77827,2.32807,1.12165A9.71516,9.71516,0,0,0,302.68959,132.52371Zm-.76608,5.45874a6.86585,6.86585,0,0,0,4.247.56142c.52023-.11382,1.15434-.25747.89169-.96059-.33213-.88906-.485-2.048-1.36886-2.46695-.74824-.35465-1.15513.69556-1.7148,1.11218C303.33119,136.71035,302.745,137.27423,301.92351,137.98245Zm-13.4483-3.33981c.82436,1.25825,2.12891,1.48725,3.40566,1.72623.43827.082,1.40853.387,1.17176-.33384-.42743-1.30132-.89334-3.00757-2.11261-3.50777C290.05711,132.165,289.27006,133.70638,288.47521,134.64264Z"/>
          <path class="cls-1" d="M59.02348,268.37756a11.49274,11.49274,0,0,1,4.7776-9.61142,21.54277,21.54277,0,0,1,10.40172-3.9566c1.35773-.186,1.87276.27938,2.11939,1.57557a13.86417,13.86417,0,0,1-2.26882,11.14637,5.95975,5.95975,0,0,0-1.1484,3.09011A13.86535,13.86535,0,0,1,67.323,281.00635c-.72358.54134-1.35036.99668-2.125.14364C61.7977,277.40563,59.0723,273.34543,59.02348,268.37756Zm4.236-.92387c.01435,2.78914.55663,3.18469,2.80051,2.11729,1.18983-.566,2.90139-.71256,3.084-2.478.12454-1.20419-2.03373-4.91992-2.60814-4.68387a5.52653,5.52653,0,0,0-2.98982,3.675A8.91577,8.91577,0,0,0,63.25946,267.45369Zm5.58638,4.76766c-1.29587.44469-2.46611.854-3.64207,1.24614-.49925.16649-.84305.48507-.5317.97439.512.80464.86714,1.94312,1.80077,2.17876.96054.24241,1.19147-.9435,1.58877-1.58259A3.77736,3.77736,0,0,0,68.84584,272.22135Zm4.34786-11.92542c.005-.80456.07387-1.63993-.98878-1.34183-.90761.25458-2.5475.01826-2.36484,1.36118.16368,1.20331,1.12977,3.238,1.991,3.16289C73.10693,263.36685,73.02421,261.45065,73.1937,260.29593Z"/>
          <path class="cls-1" d="M323.14771,259.5549c.45746-5.78355.53025-5.13918,5.24872-4.20857a19.25177,19.25177,0,0,1,6.05058,2.34484,12.03838,12.03838,0,0,1,5.51155,15.06949,25.064,25.064,0,0,1-5.0891,8.14c-.85684.98476-1.52946.80908-2.456.07185a13.31287,13.31287,0,0,1-5.41383-9.94065,6.30025,6.30025,0,0,0-1.25219-3.49557A13.0812,13.0812,0,0,1,323.14771,259.5549Zm13.27777,8.04155c.14287-1.85277-.8885-3.36051-2.27894-4.69923-.37072-.357-.78325-.88618-1.29646-.31382a8.338,8.338,0,0,0-2.18259,4.57891c-.158,1.45287,1.57284,1.532,2.48639,2.19494a2.93024,2.93024,0,0,0,.62183.24674C336.144,270.57319,336.44522,270.36814,336.42548,267.59645Zm-5.69434,4.50128a8.121,8.121,0,0,0,1.62294,3.94229c.3049.42569.70194,1.01853,1.2269.48375.66976-.68231,1.53025-1.41726,1.5555-2.406.02563-1.00269-1.14666-.69371-1.74911-1.02391A20.90681,20.90681,0,0,0,330.73114,272.09773Zm-2.81378-8.12284c.77175-1.26728,1.3843-2.27219,1.99578-3.27774.25593-.42082.36189-.85805-.17428-1.11386a5.12589,5.12589,0,0,0-2.55044-.64678c-.58093.03942-.70646.49022-.63755.95823A7.226,7.226,0,0,0,327.91736,263.97489Z"/>
          <path class="cls-1" d="M320.64316,225.67045a4.43428,4.43428,0,1,1-.37268,8.86072,4.61443,4.61443,0,0,1-4.41632-4.48379A4.74,4.74,0,0,1,320.64316,225.67045Z"/>
          <path class="cls-1" d="M259.85579,329.81937a4.66446,4.66446,0,0,1,4.75511,4.373,4.60175,4.60175,0,0,1-4.44635,4.442,4.41869,4.41869,0,0,1-4.5557-4.50708A4.35249,4.35249,0,0,1,259.85579,329.81937Z"/>
          <path class="cls-1" d="M139.82839,121.41058a4.43807,4.43807,0,0,1,.02771,8.872,4.56916,4.56916,0,0,1-4.60407-4.55209A4.47542,4.47542,0,0,1,139.82839,121.41058Z"/>
          <path class="cls-1" d="M260.0723,130.333a4.24768,4.24768,0,0,1-4.21911-4.56679,4.15538,4.15538,0,0,1,4.50667-4.2687,4.42023,4.42023,0,1,1-.28756,8.83549Z"/>
          <path class="cls-1" d="M79.60413,225.54993a4.35085,4.35085,0,0,1,4.23641,4.58658,4.52341,4.52341,0,0,1-4.89476,4.19819,4.40561,4.40561,0,0,1,.65835-8.78477Z"/>
          <path class="cls-1" d="M139.6477,338.5244a4.32728,4.32728,0,0,1-4.48187-4.33748,4.27556,4.27556,0,0,1,4.3592-4.44507,4.39179,4.39179,0,0,1,.12267,8.78255Z"/>
          <g>
            <path class="cls-1" d="M271.62312,354.80974c3.05308,23.8248-12.65522,49.30412-35.13161,56.95172a34.96733,34.96733,0,0,1-9.02441,1.83681c-.703.04561-1.60871-.13156-1.14418,1.21029,2.07768,6.00183.37664,11.3894-4.74239,14.85837a18.16257,18.16257,0,0,1-4.39235,2.2537c-7.12654,2.35623-11.11056,7.5598-13.49939,14.3581a98.55384,98.55384,0,0,0-3.55494,13.74582,4.25607,4.25607,0,0,1-1.00695-2.54106,67.27036,67.27036,0,0,0-4.17116-13.99032A20.05231,20.05231,0,0,0,182.71944,431.98c-5.63325-1.99886-9.425-5.72765-10.36741-11.89679a7.34485,7.34485,0,0,1,.92945-4.98376c.60815-1.03172.44472-1.3668-.783-1.52321-21.53944-2.74427-34.03227-16.25751-41.585-35.3664A44.38713,44.38713,0,0,1,128.1,355.85523a16.051,16.051,0,0,0,.00878-1.829c-11.88518,8.92189-25.22107,11.85264-39.59116,10.32277-14.4783-1.54138-26.542-7.61677-35.05908-19.86589a12.48291,12.48291,0,0,1-16.816,3.70635,19.72945,19.72945,0,0,1-3.51616-2.42806c-5.49714-4.8666-11.891-5.57941-18.80669-4.35257A102.67072,102.67072,0,0,0,.5558,345.15167c.26047-1.27656,1.2128-1.71071,1.90677-2.32453a72.87445,72.87445,0,0,0,9.98294-10.67276c4.07674-5.40094,4.51679-11.37161,3.452-17.78553-.85272-5.1366,1.05017-9.43023,4.93937-12.84712a7.212,7.212,0,0,1,4.45471-1.97651c2.37884-.08049,1.63114-1.31045,1.10063-2.48972a36.66564,36.66564,0,0,1-3.42031-17.764c1.586-21.81713,11.69131-38.23535,31.46582-48.27028.52372-.26576,1.29625-.37581,1.2589-1.0826-.02842-.53789-.72512-.63911-1.19428-.8635-15.56277-7.443-25.04194-19.9547-29.73206-36.24768a43.42618,43.42618,0,0,1,1.9152-30.61113c.24229-.54044,1.2945-1.39649-.46143-1.70573-6.92361-1.2193-11.2358-7.27538-10.45275-14.38654.32782-2.9771.97418-5.9338.57586-8.96947-.635-4.83907-3.25091-8.658-6.26427-12.25806A87.65834,87.65834,0,0,0,0,115.04789c2.28052.07811,3.919.99043,5.64253,1.49568a73.26818,73.26818,0,0,0,10.08069,2.32206c6.55866.95146,12.52509-.21326,17.64664-4.75905a14.67859,14.67859,0,0,1,12.52053-3.75379c2.60931.41364,4.99856,1.38964,6.4458,3.69188,1.03527,1.64692,1.54989,1.01449,2.34678-.09474a40.04005,40.04005,0,0,1,13.57695-11.9671c12.792-6.93222,26.32455-8.2747,40.40433-5.07175a46.372,46.372,0,0,1,18.46971,8.49206.79841.79841,0,0,0,1.04589.11927,41.64471,41.64471,0,0,1,.01174-12.57537c3.6906-20.81577,14.28768-36.33967,34.41738-44.41974a33.05442,33.05442,0,0,1,9.65744-2.08431c.63337-.05229,1.6118.18707,1.15913-1.20928-2.23363-6.89.10166-12.482,6.56566-15.90543a17.58712,17.58712,0,0,1,2.64954-1.21927c6.74344-2.23468,10.76748-7.0707,13.15706-13.54094a76.72181,76.72181,0,0,0,3.357-12.1335A4.1795,4.1795,0,0,1,200.09773,0a106.18362,106.18362,0,0,0,3.59381,13.78522c2.4669,6.95947,6.64508,12.09612,13.9233,14.52232a14.10718,14.10718,0,0,1,9.648,10.46414,7.62712,7.62712,0,0,1-.59207,5.9049c-.73363,1.24774-.5079,1.64042.90294,1.82544,21.03346,2.75816,33.38832,15.94259,41.01378,34.544a46.1241,46.1241,0,0,1,3.18607,22.97912c-.05475.47959-.39109,1.09337.2268,1.40643.58877.29831.93243-.30815,1.35006-.57805,18.49807-11.95494,37.67309-12.71645,57.35046-3.26934a38.44286,38.44286,0,0,1,14.79541,12.89471c.25213.35851.53826.69312.97453,1.25112a8.87486,8.87486,0,0,1,6.89574-5.2859,14.04664,14.04664,0,0,1,10.4059,1.79048,15.03516,15.03516,0,0,1,2.22631,1.52438c6.57815,6.12945,14.29173,6.19487,22.40165,4.28463a110.14309,110.14309,0,0,0,11.15855-3.30108c-.115,1.017-.90853,1.28786-1.44027,1.77168-4.28352,3.89791-8.50132,7.84776-11.66,12.7789a18.51649,18.51649,0,0,0-2.792,13.77054c.82535,4.566.63205,8.98813-2.29355,12.9118-1.87078,2.509-4.14371,4.38014-7.41892,4.54-1.16966.0571-1.45739.41592-1.01058,1.50938,8.5155,20.83991,2.45413,38.75249-11.2707,54.98976a44.041,44.041,0,0,1-16.36586,12.063c-.47158.20338-1.10971.29824-1.14574.90438-.03716.62494.59662.76611,1.05633,1.00392,21.36906,11.05626,31.70586,28.74723,31.4591,52.67152a33.9361,33.9361,0,0,1-3.4023,13.68873c-.62488,1.37016-.87343,2.00435,1.14352,2.20538,4.76372.47484,9.17022,5.87727,9.58636,11.38607a19.29992,19.29992,0,0,1-.25249,5.39186c-1.26232,6.07338.30292,11.41739,3.95975,16.30847A74.81951,74.81951,0,0,0,397.78658,343.239c.59813.5393,1.18492,1.09119,2.21342,2.0398-3.99338-1.15334-7.38539-2.27756-10.84919-3.09946-5.13893-1.21938-10.32111-2.02257-15.5725-.42856-3.112.94463-5.52647,2.98016-8.0359,4.876a14.39153,14.39153,0,0,1-13.58137,2.56947,8.44413,8.44413,0,0,1-5.43707-4.75181c-1.739,2.068-3.24043,4.13964-5.02491,5.92893-11.025,11.05507-24.69383,14.88362-39.88989,14.26564a52.99611,52.99611,0,0,1-29.53693-10.22113c-.14163-.11113-.37537-.34171-.4095-.31517C271.40554,354.30226,271.47714,354.56243,271.62312,354.80974Zm-.134-239.881c1.30529-3.64031,4.211-5.126,7.49164-4.03249a6.06856,6.06856,0,0,1,4.28039,5.04541,7.49856,7.49856,0,0,1-2.57657,7.50918,9.02211,9.02211,0,0,1-14.58295-5.58745c-.21739-1.41659-.4424-1.787-1.88765-1.17962a9.01011,9.01011,0,0,1-12.04443-10.59873,7.84461,7.84461,0,0,1,7.85149-5.5432,5.96934,5.96934,0,0,1,4.9719,8.87059c-.17712.32273-.40409.61806-.60788.92614-1.41766-.96831-2.10325-2.83645-4.03327-3.20791-.43755-.08422-.27624-.59615-.08456-.94681.44169-.80816.9561-1.73656-.08914-2.35951a2.50781,2.50781,0,0,0-2.74223.42931,5.48183,5.48183,0,0,0-1.75522,6.99821,5.57993,5.57993,0,0,0,7.26914,2.66861,8.61044,8.61044,0,0,0,4.413-4.89524A25.774,25.774,0,0,0,268.985,97.7453a48.39607,48.39607,0,0,0-7.01715-22.81338c-6.52841-11.00781-15.32857-19.38654-27.85422-23.25679-3.40676-1.05265-6.945-1.20677-10.457-1.55487-2.8061-.27814-3.43379-.97209-3.72975-3.77337a10.87468,10.87468,0,0,0-.68154-3.291,9.48458,9.48458,0,0,0-9.92229-5.48163c-4.12218.70592-7.90043,4.58138-8.26014,8.47272-.26438,2.85957.9158,4.846,3.23669,5.44782a5.69293,5.69293,0,0,0,6.53672-3.18358c1.01395-2.25947,2.65583-2.81894,4.8167-1.64131a4.68906,4.68906,0,0,1,.86961,7.90093,11.19989,11.19989,0,0,1-15.163-.31908c-1.19593-1.18978-1.72059-1.20812-2.91952.01642-4.25831,4.34927-12.21755,4.01086-15.94721-.50614a4.02985,4.02985,0,0,1-.59557-4.62376,4.824,4.824,0,0,1,4.16089-3.021c1.84369-.11313,2.50838,1.06567,3.14935,2.58679a5.40218,5.40218,0,0,0,6.49557,2.71147c2.28436-.684,3.41133-2.79709,2.97853-5.59422a9.77032,9.77032,0,0,0-4.48773-6.7452,8.76953,8.76953,0,0,0-9.40242-.487,8.50388,8.50388,0,0,0-4.90833,7.30212c-.26873,3.33406-.81048,3.96035-4.1759,4.26856a48.66659,48.66659,0,0,0-10.43885,1.64249c-11.67778,3.70939-20.12934,11.42521-26.508,21.57987-5.30484,8.44521-8.33661,17.62941-7.9615,27.73306.13813,3.72079.78139,7.36154,3.0806,10.43063,3.01432,4.02368,8.24815,3.73959,10.34387-.48269a5.455,5.455,0,0,0-2.63157-7.234,2.079,2.079,0,0,0-2.15154.0892,1.03333,1.03333,0,0,0-.28059,1.42306c1.01177,1.4526.24177,1.99036-1.06364,2.45648a3.452,3.452,0,0,0-1.81647,1.9275c-.518,1.09522-.91532.67251-1.36612-.01511a5.94551,5.94551,0,0,1,2.78848-8.67254c4.542-1.88574,9.8613,1.60859,10.21549,6.71075.45054,6.48968-5.8218,11.175-12.21278,8.98763-1.427-.4884-1.86276-.31471-2.00749,1.122a7.41082,7.41082,0,0,1-1.63252,3.903c-2.291,2.86672-5.28928,4.28313-8.92141,3.58666a7.8475,7.8475,0,0,1-6.67135-6.489,7.04565,7.04565,0,0,1,3.29-7.54321,5.75809,5.75809,0,0,1,7.20878,1.10446c.60571.65895,1.859,1.85442.99477,2.32694-1.53363.83856-3.49087.90285-5.273,1.28109-.02363.005-.0717-.12275-.11391-.18478-.47493-.69825-1.01138-1.48737-1.96373-1.09617-.93373.38355-1.11333,1.33518-1.12146,2.28733a5.60238,5.60238,0,0,0,10.64345,2.31262c1.34219-2.78222.43664-5.27414-1.1514-7.61606a22.752,22.752,0,0,0-7.59383-6.59741c-19.86964-11.7608-53.172-7.08577-65.18113,13.68039-1.54356,2.6691-3.04391,3.601-6.31387,1.84685-4.40078-2.36076-9.6529-.23913-11.9321,4.37093-2.14647,4.34163-.3,10.43218,3.80942,12.56547,2.63833,1.36961,5.13637.5905,6.38814-2.09643a5.018,5.018,0,0,0-.66517-5.88743,2.54667,2.54667,0,0,1-.2658-3.45894c1.12738-1.81528,2.89254-2.28193,4.88829-2.0862a4.01561,4.01561,0,0,1,3.65193,3.19149,11.08834,11.08834,0,0,1-7.66351,13.60872c-1.713.4484-1.84095,1.044-1.43753,2.61771a11.131,11.131,0,0,1-7.87776,13.29592,4.68663,4.68663,0,0,1-5.71524-5.807c.49615-1.74046,1.40428-2.85509,3.59777-2.43191a5.37826,5.37826,0,0,0,6.11269-4.10531c.60305-2.56584-.88725-4.7333-3.89277-5.66154a9.86171,9.86171,0,0,0-11.7923,5.04562c-2.09905,4.47748-.83713,8.87988,3.53295,11.71427,1.85528,1.20332,2.31011,2.62739,1.48067,4.58261-.32219.75946-.58985,1.54849-.979,2.27205A35.54771,35.54771,0,0,0,26.89705,180.391c.34266,13.64956,5.4598,25.4157,14.54511,35.47888,4.85408,5.37654,10.54084,9.63725,17.66415,11.56518,2.79524.75652,5.66151.94336,8.26405-.79521a5.57568,5.57568,0,0,0,1.34628-8.11255,5.49686,5.49686,0,0,0-7.43423-1.238c-.59591.46349-1.18343.99109-1.05654,1.85968a1.14422,1.14422,0,0,0,1.07707,1.00816c1.63772-.01029,1.99051.74389,1.64587,2.20949-.10977.46683.19191,1.02012.25284,1.54.07666.65426,1.1539,1.12152.61987,1.74619-.58485.6841-1.55541.29939-2.35192.15757a5.24219,5.24219,0,0,1-3.07466-1.73556,5.79441,5.79441,0,0,1-1.07535-6.50089,7.23743,7.23743,0,0,1,6.28382-4.48875,8.32162,8.32162,0,0,1,8.45422,5.133A8.83051,8.83051,0,0,1,69.832,228.50639c-1.60784,1.31729-1.38182,1.91454.06742,3.05393a8.3191,8.3191,0,0,1,2.87842,6.1592,8.60222,8.60222,0,0,1-5.71974,8.78525,7.83324,7.83324,0,0,1-9.03345-2.73051,5.99481,5.99481,0,0,1,4.21013-9.65623c1.19383-.11416,2.35134-.20949,1.19484,1.55922a3.24523,3.24523,0,0,0-.43586,2.60883c.30164,1.12774-.06639,1.49852-1.17782,1.45081a1.57059,1.57059,0,0,0-1.62478,1.00692c-.25913.80943.31107,1.43306.93271,1.89074a5.12737,5.12737,0,0,0,5.52236.56366,5.71259,5.71259,0,0,0,3.18917-5.94685A5.98147,5.98147,0,0,0,64.89,232.35318a16.3136,16.3136,0,0,0-10.24069,1.86145c-10.58871,5.20412-17.75361,13.6816-22.67816,24.16213-4.65821,9.9137-6.4957,20.26031-3.97484,31.12562a45.721,45.721,0,0,0,3.70974,9.40347c1.4245,2.96108,1.1283,4.07776-1.10159,5.59777-4.23276,2.8853-5.57209,7.19925-3.58329,11.54177a9.883,9.883,0,0,0,11.68671,5.29072c3.01846-.86716,4.62888-3.02594,4.1289-5.535a5.4549,5.4549,0,0,0-6.39806-4.27511c-1.74386.359-2.5653-.49481-3.13763-1.80762a4.69993,4.69993,0,0,1,.962-5.22893c1.50663-1.73839,3.43411-1.66167,5.39191-.98729,5.16742,1.77993,8.48837,7.77089,7.01007,13.03824-.50912,1.814-.02684,2.22083,1.59924,2.66527A11.16681,11.16681,0,0,1,55.7936,332.7366a4.10661,4.10661,0,0,1-3.616,3.24735,4.85984,4.85984,0,0,1-4.80607-1.83857c-1.25738-1.65042-.49238-2.94652.60314-4.40019,1.43034-1.89795.8502-5.13891-.94131-6.80934-1.66286-1.55049-4.04732-1.58608-6.1762.09472a9.62438,9.62438,0,0,0-3.738,9.168c.80291,6.48327,7.48262,9.89391,13.40193,6.96856,2.36681-1.16967,3.38225-.95652,5.03631,1.12187a24.347,24.347,0,0,1,1.41118,2.03546,35.37388,35.37388,0,0,0,12.64054,11.97c13.79209,7.70336,28.321,8.88307,43.34058,4.37781a32.76547,32.76547,0,0,0,14.45382-8.41852c1.9753-2.03988,3.49972-4.35458,3.33893-7.37338a5.64692,5.64692,0,0,0-6.15692-5.25087,5.448,5.448,0,0,0-5.079,5.57272c.04559.86923.211,1.7095,1.0874,2.06257.83991.33838,1.40338-.22567,1.87631-.8608.33575-.45086.62311-1.22775,1.33689-.505,1.22217,1.23766,2.77361,1.33319,4.38481,1.2808a5.53221,5.53221,0,0,1-6.27249,4.26729c-5.20441-.88145-7.42023-7.42206-3.91134-11.67473a8.10209,8.10209,0,0,1,8.44317-3.02731c3.73207.84475,6.33161,3.12069,7.10976,6.992.32849,1.6342.568,2.354,2.49465,1.49709,2.47295-1.09986,5.03793-.53413,7.38132.72236a8.67668,8.67668,0,0,1,4.4194,8.9152,7.83937,7.83937,0,0,1-6.29923,6.54879,6.06555,6.06555,0,0,1-6.37212-2.41019,5.6367,5.6367,0,0,1-.3931-6.366c.23935-.47249.67662-1.44181,1.19431-.66507a6.57613,6.57613,0,0,0,3.33558,2.84739c.5747.20145.40045.65.17373,1.10252-.3717.74188-.8082,1.61331.04229,2.24723.92062.6861,1.85352.208,2.70532-.33458a5.34973,5.34973,0,0,0,1.47527-7.69838,5.61371,5.61371,0,0,0-8.31473-1.18519c-2.31661,1.8109-3.33472,4.39-3.94608,7.15a36.42007,36.42007,0,0,0,1.37,19.55705c5.01451,15.176,14.2081,26.79332,29.11773,33.40487,4.70226,2.08511,9.72059,2.4433,14.72464,2.94687,2.12819.21417,3.138,1.31493,3.21767,3.54484a9.07036,9.07036,0,0,0,8.63334,9.00809c4.13967.39034,8.84837-3.07706,9.939-7.31894.83528-3.24872-.14683-5.72459-2.61252-6.58583a5.37945,5.37945,0,0,0-6.902,3.35577,2.70815,2.70815,0,0,1-3.15183,1.90951,4.85962,4.85962,0,0,1-4.00147-3.23939,4.15146,4.15146,0,0,1,1.0443-4.74151c3.88462-4.04277,11.05719-4.44143,15.12052-.57919,1.471,1.39815,2.15613,1.61411,3.77217.08512,4.23808-4.00985,11.86921-3.50113,15.46776.71991a4.16074,4.16074,0,0,1,.75908,4.61351,4.824,4.824,0,0,1-4.29666,3.17112c-1.77891.10813-2.46846-1.0878-3.12655-2.62279a5.22165,5.22165,0,0,0-6.45717-2.69249c-2.41619.81937-3.52064,3.09988-2.9349,6.06.848,4.28562,5.50709,8.03948,9.79057,7.88838a9.23186,9.23186,0,0,0,9.00191-8.69856c.304-3.12154.67072-3.56994,3.7556-3.9528,3.34986-.41573,6.74219-.48711,10.01949-1.4406,9.42089-2.74086,16.92107-8.29937,23.02211-15.82529,7.28962-8.992,11.76-19.15324,12.26856-30.85414a24.739,24.739,0,0,0-1.64653-10.82863,8.34349,8.34349,0,0,0-4.845-5.04388,5.6673,5.6673,0,0,0-7.04872,3.28118,5.50979,5.50979,0,0,0,2.39258,6.82205,2.44651,2.44651,0,0,0,2.364.21026,1.00275,1.00275,0,0,0,.46157-1.36652c-1.175-1.76019.008-2.22712,1.31658-2.81614.50368-.22672.85257-.82557,1.23436-1.28608.3163-.38143.357-1.13672,1.02267-1.02955.67427.10854.7675.86209.98734,1.37571a5.92419,5.92419,0,0,1-1.79637,7.09621,6.99053,6.99053,0,0,1-8.39693-.19573,8.332,8.332,0,0,1-2.65709-9.53c1.43143-3.74836,5.543-6.59586,9.50494-5.59139,3.18081.80641,4.03041.26416,4.96281-2.87541,1.282-4.317,6.55112-6.4477,10.70441-5.13082a7.92773,7.92773,0,0,1,5.71326,9.239,6.50261,6.50261,0,0,1-5.87884,5.358,5.66711,5.66711,0,0,1-5.82163-4.32559c1.6039.03975,3.17569.00834,4.374-1.28785.67144-.72638,1.01312-.12373,1.35058.40987.4119.65134.90182,1.31862,1.772,1.05176,1.05751-.3243,1.11879-1.3187,1.16008-2.22674a5.332,5.332,0,0,0-4.45307-5.39164c-3.23694-.4208-5.90625,1.27036-6.53918,4.14869a8.09357,8.09357,0,0,0,1.65287,6.57243,22.27756,22.27756,0,0,0,7.65527,6.52272c11.56665,6.47669,23.92184,7.593,36.6869,4.99557,10.38178-2.11253,19.37459-6.79169,25.98283-15.37337,1.09862-1.42672,2.05483-2.96226,3.12358-4.4131,1.28928-1.75021,2.771-2.20065,4.86693-1.10209a8.9135,8.9135,0,0,0,11.92642-2.8527,9.94885,9.94885,0,0,0-1.44181-12.58565c-2.33232-2.17579-4.99753-2.46927-6.86751-.75617a5.312,5.312,0,0,0-.56077,7.50089,2.79765,2.79765,0,0,1-.09759,4.03027,4.75123,4.75123,0,0,1-8.053-1.4284c-1.99438-5.55309,1.723-12.28989,7.76844-13.90122,1.3437-.35817,1.80622-.61831,1.33233-2.20477a10.76909,10.76909,0,0,1,7.65648-13.61028,4.73991,4.73991,0,0,1,5.986,5.23509c-.2752,2.2314-1.55985,3.21051-3.79232,2.89033a5.77556,5.77556,0,0,0-6.05688,4.03162c-.695,2.22413.52171,4.41776,3.07821,5.54974A10.02783,10.02783,0,0,0,372.402,316.797a8.97118,8.97118,0,0,0-3.09011-12.22482c-2.14121-1.42576-2.53712-2.54026-1.54963-4.92438.68853-1.66239,1.62011-3.22513,2.29229-4.89311,4.40115-10.921,3.53272-21.80573-.62068-32.52408-4.7414-12.23572-12.35624-22.0961-24.37567-28.052a16.48986,16.48986,0,0,0-9.581-1.92209,6.37139,6.37139,0,0,0-4.56024,2.59864,5.67289,5.67289,0,0,0,.80409,7.39087,5.33515,5.33515,0,0,0,7.00162.324c.95481-.85337,1.61824-2.273-.01775-2.53787-2.1209-.34336-1.98345-1.35366-1.85311-2.84888a2.79233,2.79233,0,0,0-.59835-1.66046c-.97752-1.37258-.18033-1.47826.93466-1.44957a5.86933,5.86933,0,0,1,5.77305,6.20779c-.18279,4.50213-5.11631,7.80073-9.67366,6.43237a8.21856,8.21856,0,0,1-6.09691-6.596,8.6372,8.6372,0,0,1,3.0868-8.89351c1.24311-.99115,1.32715-1.44613-.01225-2.3784a8.11216,8.11216,0,0,1-2.96661-4.67109,8.875,8.875,0,0,1,4.3135-10.18682,7.87467,7.87467,0,0,1,9.81647,1.86772,6.06123,6.06123,0,0,1,1.03685,6.53727,5.58661,5.58661,0,0,1-4.82875,3.54018c-1.251.14738-2.47708.14576-1.23089-1.66462a2.93617,2.93617,0,0,0,.42867-2.597c-.42-1.2279.06692-1.40967,1.121-1.39568a1.48207,1.48207,0,0,0,1.60854-.98045c.25232-.8662-.30743-1.39554-.91891-1.88459a5.3846,5.3846,0,0,0-7.589,1.16131c-2.68621,3.80423-.47,8.56952,4.31643,9.22334a16.403,16.403,0,0,0,9.18536-1.6878c8.61531-3.96149,15.06023-10.3507,19.94731-18.32551,6.68656-10.91112,9.94057-22.6222,7.66439-35.50681-.72864-4.12461-2.533-7.82717-4.26011-11.58053-1.19972-2.60714-.8382-3.69786,1.3077-5.16717,4.26156-2.91789,5.56055-7.36031,3.44431-11.77911a9.8544,9.8544,0,0,0-11.62278-5.00462c-2.98366.88249-4.681,3.164-4.12987,5.55111a5.71858,5.71858,0,0,0,6.27917,4.27068,2.999,2.999,0,0,1,3.66041,2.89716,4.72021,4.72021,0,0,1-6.34489,5.20272c-5.41074-1.71052-8.96315-7.80888-7.35909-13.24178.59254-2.00685-.13085-2.1854-1.64915-2.5814-5.79383-1.51116-9.51039-8.87215-7.26892-14.17981a4.08334,4.08334,0,0,1,3.8531-2.63275,4.67032,4.67032,0,0,1,4.4681,2.08662c1.00233,1.5329.36957,2.70524-.64768,4.03245a5.33335,5.33335,0,0,0,.88112,6.96551c1.73617,1.60822,4.19436,1.59534,6.336-.2354a9.66772,9.66772,0,0,0,3.43754-9.70123A9.106,9.106,0,0,0,349.47,120.77477c-2.78116,1.32458-3.60648,1.12282-5.49179-1.3778-.40651-.53915-.77863-1.10566-1.14412-1.67406a32.40356,32.40356,0,0,0-9.45255-9.85592c-16.35928-10.65834-33.62509-11.88241-51.549-4.49134a24.5757,24.5757,0,0,0-11.0108,8.32176,7.77067,7.77067,0,0,0-1.54559,6.58283,5.51534,5.51534,0,0,0,6.17167,4.09652,5.40968,5.40968,0,0,0,4.82644-5.109c.03733-.9757-.01575-2.06545-1.06875-2.52667-.9629-.42176-1.50358.33568-1.94345,1.06783-.37122.61788-.778.9277-1.39353.27248C274.71265,114.851,273.19065,114.88378,271.48912,114.92875ZM372.916,302.87647a1.22994,1.22994,0,0,0,.45829,1.14762,11.54815,11.54815,0,0,1,2.4528,12.35419,11.42064,11.42064,0,0,1-9.75874,7.96246c-1.756.25023-1.81548.67694-1.23439,2.18567a12.21759,12.21759,0,0,1-8.68317,16.47956,17.02261,17.02261,0,0,1-6.35253-.14136,1.10534,1.10534,0,0,0,.2856,1.19284c2.253,2.97309,6.2462,3.76606,10.2042,2.02235a30.22988,30.22988,0,0,0,6.10435-3.80919c5.83622-4.46579,12.31458-5.5929,19.38263-3.99363a2.95764,2.95764,0,0,0,2.27659-.051,7.12678,7.12678,0,0,0-.59592-.8313c-5.93618-5.91183-7.96119-13.04851-6.76962-21.2471a19.80785,19.80785,0,0,0,.01856-6.291C379.95455,305.58181,376.78734,302.72061,372.916,302.87647ZM349.56819,117.15315a4.7242,4.7242,0,0,0,.86892-.00622c10.13-2.46913,18.41731,7.73572,14.20739,16.88227-.61817,1.34311-.022,1.456,1.06872,1.59451,10.93474,1.3888,13.88861,14.31381,7.75743,20.2978-.30713.29977-.8012.62453-.5327,1.11728.33037.60619.93615.2724,1.41351.182,3.28892-.62278,5.84949-3.59506,6.38838-7.31281.43693-3.01422-.01924-6.00327-.2486-8.98961a20.63775,20.63775,0,0,1,4.41519-15.17205c1.0644-1.31815,2.13579-2.63061,3.20014-3.94091-.6185-.55985-1.13785-.26726-1.60885-.15251a23.28193,23.28193,0,0,1-21.175-4.6057,18.35554,18.35554,0,0,0-6.88281-3.72638A7.49087,7.49087,0,0,0,349.56819,117.15315ZM11.676,338.2271a3.73036,3.73036,0,0,0,2.74181-.04441c6.55651-1.33923,12.65377-.493,18.18172,3.54886a62.06128,62.06128,0,0,0,6.44359,4.107,8.6754,8.6754,0,0,0,7.39776.6444,5.44361,5.44361,0,0,0,3.66152-3.48048,4.16179,4.16179,0,0,0-.98331-.03862,12.27156,12.27156,0,0,1-14.07631-16.72945c.54134-1.26445.224-1.653-1.12263-1.84953-4.9626-.72437-8.46792-3.43261-10.007-8.24294-1.48-4.62562-.726-8.89337,2.81651-12.4626a3.45589,3.45589,0,0,0,.43243-.77943c-3.66551-.23977-6.58077,1.92269-7.73649,5.63141a17.60623,17.60623,0,0,0-.31058,7.808c.9993,7.10317-.191,13.60122-5.12014,19.11255C13.21157,336.32766,12.48571,337.25481,11.676,338.2271ZM199.73722,447.09334c.31947-.30017.39864-.34143.42493-.40472a9.37085,9.37085,0,0,0,.40323-1.044,23.257,23.257,0,0,1,14.69983-16.18373,19.69677,19.69677,0,0,0,6.00915-3.48822c2.791-2.47389,3.82128-6.08069,2.54682-8.91738-.17288-.38473-.19757-.9986-.77759-.94936-.52994.045-.56308.60235-.69918,1.0287a12.232,12.232,0,0,1-21.30269,3.51591c-1.08446-1.44107-1.62272-1.069-2.36155.11743-2.72857,4.38156-9.25712,5.40244-13.00446,4.24441a12.31732,12.31732,0,0,1-8.68325-9.03486,1.723,1.723,0,0,0-1.12659,1.28063c-1.16724,3.1461.16352,6.9078,3.32921,9.29013a30.98352,30.98352,0,0,0,6.53668,3.48885c5.94545,2.55683,10.27148,6.67415,12.50791,12.83473C198.72048,444.19629,199.1824,445.5276,199.73722,447.09334Zm.25285-406.50173c.52923-.6502,1.02123-1.30116,1.56062-1.91017,6.05878-6.84112,17.61142-4.73708,20.68537,3.75893.19008.5253.04156,1.42885.81378,1.40707.81164-.0229.841-.96856,1.02977-1.56146.96681-3.03619-.595-6.6909-3.74458-8.9536-2.64239-1.89829-5.70335-2.99722-8.56-4.485a19.6277,19.6277,0,0,1-9.49921-10.11384c-.756-1.83217-1.484-3.6759-2.24541-5.56575-.25215.20776-.42346.27861-.4696.39788-.40516,1.0475-.80294,2.09837-1.17489,3.15808a20.99469,20.99469,0,0,1-11.41429,12.676c-1.97563.9079-3.94633,1.83492-5.86636,2.85306A10.7368,10.7368,0,0,0,176.048,37.505c-1.12744,2.61368-.79677,4.90483.90785,6.55388C179.353,34.05172,193.19953,30.503,199.99007,40.59161ZM50.169,117.18723c-1.92709-3.937-6.279-5.15884-10.631-3.2524a30.29975,30.29975,0,0,0-6.09469,3.82452,22.32121,22.32121,0,0,1-19.1649,4.08426,3.986,3.986,0,0,0-2.611-.16881,3.78156,3.78156,0,0,0,.41109.70328c6.3457,6.24929,8.44292,13.77492,6.91969,22.47275a14.03063,14.03063,0,0,0,.42076,6.695c1.18231,3.72714,4.49721,6.13015,7.57853,5.40135a3.31061,3.31061,0,0,0-.46162-.75643c-6.22348-5.73189-3.82249-19.18049,7.66644-20.57351,1.80294-.2186,1.13824-.97287.77441-1.91205a12.25866,12.25866,0,0,1,6.77073-16.0567C44.42851,116.475,47.16488,116.8224,50.169,117.18723Zm221.66991-11.4119c-.04866-.02932-.11157-.09344-.143-.0806a.62651.62651,0,0,0-.16187.14394l.29623.09594Z"/>
            <path class="cls-1" d="M277.36112,364.137c4.779,3.48254,9.814,5.2423,15.53152,4.43785.50593.85257-.22425,1.16843-.55987,1.56866a16.15964,16.15964,0,0,0-4.06493,10.71474c.00785,1.46372-.08173,2.21333-1.78527,1.18158-3.00227-1.81844-6.366-2.10708-9.79421-1.91292-1.02211.05792-2.04415.11826-3.72173.21549A21.05361,21.05361,0,0,0,277.36112,364.137Zm2.5924,12.15148a7.98725,7.98725,0,0,1,3.78511.63472c.91613.39692,1.40687.13882,1.50451-.89857a4.06253,4.06253,0,0,1,.40381-1.72866c1.0078-1.61171.31426-2.07666-1.2569-2.46334-2.9509-.72622-2.92323-.81425-3.68328,2.00459C280.51372,374.55335,280.27246,375.25644,279.95352,376.28852Z"/>
            <path class="cls-1" d="M105.83224,368.27153a20.15262,20.15262,0,0,0,16.76441-4.88485c-1.07679,6.43606.015,11.7725,3.88417,16.723-2.3118-.17486-4.07468-.41251-5.83823-.41752a15.81575,15.81575,0,0,0-7.6936,2.21733c-.50494.27732-1.44259,1.09083-1.47787-.13208C111.32831,376.82631,109.18623,372.70946,105.83224,368.27153Zm12.0488,2.36427c-1.24921,1.60894-4.03371.38564-4.2645,2.28409-.12919,1.06272-.01381,3.19441,1.54418,4.05067.63244.34762,4.41065-1.38879,4.25189-1.70622C118.71906,373.87762,119.09554,372.09614,117.881,370.6358Z"/>
            <path class="cls-1" d="M277.25079,96.08835a19.72164,19.72164,0,0,0-4.09207-16.32325c1.79119.25467,2.85193.43448,3.91952.552a15.41,15.41,0,0,0,9.69153-2.191c1.36371-.80241,1.75937-.6161,1.74021,1.01939-.04875,4.1708,1.85916,7.64042,4.21165,10.91309.25395.35329.68578.64673.49061,1.16431-.17951.476-.61435.31842-.963.28957a18.96932,18.96932,0,0,0-13.83042,4.203A4.70256,4.70256,0,0,1,277.25079,96.08835Zm2.987-11.992c.35236,1.50316.66122,2.81462.96653,4.1269.09374.403.01261,1.08547.65286.90743a14.8213,14.8213,0,0,0,4.3649-1.58432c.55585-.37664-.549-1.69469-.62662-2.64417-.14017-1.71561-.8006-2.16968-2.44017-1.34084A10.6033,10.6033,0,0,1,280.23775,84.09634Z"/>
            <path class="cls-1" d="M338.95131,337.14943a48.07377,48.07377,0,0,1-9.944,10.53325,35.55024,35.55024,0,0,1-20.52128,7.13667c-8.38187.36549-16.52522-1.26984-25.28442-3.33461,3.28979-1.10646,5.61355-2.54866,6.48748-5.42258.86766-2.85331-.02874-5.46124-1.5171-8.09366,5.7018,2.85248,11.45068,4.82822,17.601,1.87485,5.97482-2.86911,9.05438-8.08154,11.02663-14.33118a5.63023,5.63023,0,0,1,.541,3.09707c.28241,5.06577,1.96274,9.39092,6.39088,12.28084.78744.51392,1.18046.9316.19236,1.6386-7.19935,5.15091-14.97481,7.89383-23.92426,5.77021a2.19688,2.19688,0,0,1-.58527-.30545c-.05085-.0308-.06739-.11821-.22716-.42209,3.24726-.21923,6.4284-.1941,9.50218-1.044a39.05384,39.05384,0,0,0,8.89236-3.76053c.73959-.42,1.33321-.80673.45718-1.65292a10.81328,10.81328,0,0,1-2.50254-4.63566,27.2633,27.2633,0,0,1-11.7495,6.72961,20.473,20.473,0,0,1-8.69789.61159c-1.22924-.19572-1.80964.09324-1.84353,1.43768a5.89206,5.89206,0,0,1-1.80983,4.01477c-.76729.78273-.70095,1.26574.40392,1.46829,13.97651,2.56218,27.28188,1.97459,38.51982-8.24822.435-.39569,1.12053-.75009,1.03982-1.38293-.1029-.80624-.95823-.51607-1.48349-.65486a12.944,12.944,0,0,1-8.9231-16.98849c.54913-1.47782.1225-1.84138-1.13129-2.42613a5.27627,5.27627,0,0,1,3.85483-9.823,3.356,3.356,0,0,1,1.86191,1.53928c.21233.38069.25059,1.2141-.17711,1.09735-1.54394-.42134-2.58337,1.23031-4.00927.8286-.76985-.21695-1.32184-.14519-1.72124.55774a1.89039,1.89039,0,0,0,.15908,1.93041c.944,1.734,3.222,2.05835,5.33279.70518,3.16982-2.032,6.50914-2.9866,10.274-2.00679a9.5214,9.5214,0,0,1,6.83276,9.714,8.89937,8.89937,0,0,1-7.37036,8.474,7.26555,7.26555,0,0,1-6.83653-2.61164,4.09894,4.09894,0,0,1,.17326-5.71017c1.60967-1.61749,3.30757-1.52043,5.33188.28643,1.23265,1.10027,2.49412,2.5192,4.2961,1.2868,1.75406-1.19959,1.65755-3.10139,1.16609-4.90922a5.00191,5.00191,0,0,0-4.14035-3.71568c-3.7099-.67774-7.0923.15986-9.57247,3.16094a8.982,8.982,0,0,0-1.31564,9.94984,9.69251,9.69251,0,0,0,8.29819,6.08238C334.39333,338.0643,336.39828,337.32024,338.95131,337.14943Z"/>
            <path class="cls-1" d="M84.1156,336.39579a8.80653,8.80653,0,0,1-2.44491,4.77843c-.95537.87176-.1878,1.17688.51173,1.5846a31.8273,31.8273,0,0,0,18.64852,4.62677,1.93451,1.93451,0,0,1-1.60993,1.04992c-8.71466,1.84678-16.28514-.88389-23.29347-5.84125-.52447-.371-1.04857-.92382-.27071-1.413,5.84829-3.67857,7.03036-9.38348,7.16186-15.79225.32757.84431.64173,1.6941.98487,2.532,2.4249,5.92137,5.95789,10.80338,12.42172,12.751,4.24326,1.2786,8.31976.45708,12.24728-1.37324.98281-.458,1.95136-.9466,3.09369-1.50253-2.89016,8.31316-2.09655,10.64316,4.74842,13.65267a94.92258,94.92258,0,0,1-14.01019,2.78881c-9.31914,1.25825-18.43637.93036-26.98255-3.65727-5.86161-3.14656-10.31845-7.75649-14.61516-13.53529,1.94194.325,3.23536.59122,4.54181.751,4.54724.55623,7.88876-1.35094,10.15039-5.20459a9.52461,9.52461,0,0,0-.79571-10.59091,10.05313,10.05313,0,0,0-9.94639-3.31143c-3.18816.86377-5.07356,4.41164-3.84455,7.23456.83151,1.90989,2.2094,2.36887,3.98256,1.27821a9.76955,9.76955,0,0,0,1.38814-1.13708c2.02311-1.83642,3.69789-1.95889,5.31939-.37292a4.15508,4.15508,0,0,1,.24652,5.70874,7.60222,7.60222,0,0,1-9.967,1.52885A9.56077,9.56077,0,0,1,68.576,315.53516a15.61954,15.61954,0,0,1,6.23742,2.426c2.04153,1.343,4.35726.85722,5.26087-.95432a1.69169,1.69169,0,0,0-.02136-1.90912,1.34531,1.34531,0,0,0-1.58057-.464c-1.57232.36756-2.773-1.34546-4.4488-.706a3.75152,3.75152,0,0,1,4.57575-3.01454,5.18511,5.18511,0,0,1,4.61583,5.2409,5.496,5.496,0,0,1-3.5794,5.03545c-1.26454.511-1.25476,1.02625-.832,2.18722a13.01,13.01,0,0,1-8.83556,17.05254c-.53628.15066-1.37622-.10689-1.53268.63136-.16463.77681.658,1.1001,1.13135,1.53774,7.54626,6.977,16.65125,9.54183,26.70685,9.41834a76.07628,76.07628,0,0,0,10.75814-1.04555c1.41494-.22,2.41507-.5867.93547-2.15924a6.34853,6.34853,0,0,1-1.53494-3.922c-.07178-.84778-.32542-1.23505-1.2305-1.114C97.09759,344.85981,90.3466,341.93265,84.1156,336.39579Z"/>
            <path class="cls-1" d="M52.74871,217.89526a.72941.72941,0,0,1-.98091-.24324c-6.36525-6.92915-12.55551-13.98815-16.17739-22.85291-4.25475-10.41376-2.953-20.58509,1.43767-30.59937.0798-.182.31468-.296.56077-.5167.86353,1.80185,1.25769,3.72095,2.27009,5.384a10.05863,10.05863,0,0,0,14.20332,2.90157,9.43236,9.43236,0,0,0,1.87783-13.72382c-2.17691-2.80831-5.92439-3.273-8.29742-1.02882-1.9299,1.82508-1.52971,3.91213.94912,4.91129.4173.16821.85388.28869,1.28167.43083,2.38448.79235,3.20033,1.97522,2.83813,4.11524a4.14035,4.14035,0,0,1-4.18215,3.36208c-5.29609-.02158-8.63306-6.17574-6.107-11.37525a9.10763,9.10763,0,0,1,8.64972-5.43951c4.02409-.041,6.857,1.95847,8.64344,5.44422a13.0373,13.0373,0,0,1,1.35659,7.21612,3.53662,3.53662,0,0,0,2.52928,4.0264,2.00534,2.00534,0,0,0,2.41926-.72093c.52987-.74458.14257-1.26379-.3917-1.943-.81744-1.03921-.77733-2.53335-1.03567-3.75867-.24887-1.18034,1.28433-.69475,2.01709-.41476a5.06669,5.06669,0,0,1,2.79488,5.4071,4.907,4.907,0,0,1-4.04976,4.26189,5.79782,5.79782,0,0,1-4.87825-1.18843c-.85427-.745-1.28949-.49443-1.97169.28526-5.39346,6.16392-13.54356,6.56772-19.45917.92025-1.3326-1.27219-1.60136-.96813-1.98249.62741C34.8717,182.561,36.68,191.109,40.9876,199.2817a61.65571,61.65571,0,0,0,7.69875,11.07585c.41725.49166.72829,1.171,1.605,1.23773a7.689,7.689,0,0,1,3.41078-5.02054c.91936-.5456.48629-1.02141.03391-1.61011-4.60694-5.99484-5.599-12.80712-4.35981-20.05641.24462-1.43109.04862-1.8008-1.37179-1.352a4.70371,4.70371,0,0,1-2.89832.01484c-1.84944-.6292-1.934.303-1.90854,1.75582A31.0357,31.0357,0,0,0,47.888,202.01223a7.48794,7.48794,0,0,1,.49022.99707c.01578.03513-.073.11726-.20973.32221a15.58051,15.58051,0,0,1-4.74141-5.80091,30.89778,30.89778,0,0,1-3.32305-17.45125c.11046-1.40894.20338-2.51352,2.24157-1.44423,4.03052,2.11451,8.14483,1.54615,12.146-.32389a35.77562,35.77562,0,0,1,3.79278-1.63746c-3.97711,4.83544-7.0603,10.00257-6.62937,16.51089.4561,6.88829,4.96811,10.92731,10.48751,14.28337-.91206.68939-1.7593.34953-2.53519.42606-5.08716.50181-7.5747,4.09773-6.90351,10.03116Z"/>
            <path class="cls-1" d="M234.48584,383.23186a14.06982,14.06982,0,0,1,3.19975,5.5185,32.1649,32.1649,0,0,0,14.53-14.44741,7.67644,7.67644,0,0,1-1.0331,4.95618c-3.31814,6.58809-8.59824,11.07167-15.24753,14.05325-.9117.40885-1.70352.66852-1.78071-.889-.277-5.59106-3.56653-9.20541-8.06054-11.98128a6.24155,6.24155,0,0,1-2.2707-1.68821c16.84818,2.71949,23.78054-2.27068,25.47844-18.632,1.7703,2.48636,3.38039,4.86625,6.37965,5.53562,2.98855.667,5.36659-.57429,7.62125-2.47711a89.46707,89.46707,0,0,1-7.7857,20.35506c-3.67445,6.64771-8.56511,12.12926-15.41436,15.65539a44.34553,44.34553,0,0,1-16.75874,4.546c1.28463-1.65933,2.34525-2.88282,3.24223-4.21639,2.35623-3.50335,2.17854-7.14449.05643-10.615a9.13817,9.13817,0,0,0-9.55933-4.60776c-3.95388.5452-6.42593,3.07409-7.71672,6.73807a5.41808,5.41808,0,0,0,3.31355,6.95719c2.54271.91046,4.4234-.63736,3.97637-3.28126-.07493-.44329-.21631-.87493-.30765-1.31593-.47343-2.28546.19983-3.824,1.9426-4.45637a4.23963,4.23963,0,0,1,5.34264,2.15145c1.93729,3.875-.428,8.98017-4.77964,10.31619a9.62441,9.62441,0,0,1-10.37355-3.07673,9.48307,9.48307,0,0,1-.73616-10.95522,13.39108,13.39108,0,0,1,5.782-5.18557c2.21887-1.10872,2.96678-2.99007,2.12569-4.77452a1.90825,1.90825,0,0,0-1.70891-1.26788c-.77027-.01666-1.17058.4541-1.39182,1.21032-.41207,1.40834-1.99975,1.76945-2.78928,2.99192-.51629.79933-1.08714-.58946-1.2659-1.18825-.91787-3.0742,2.74242-6.62041,6.056-5.91933a5.48964,5.48964,0,0,1,4.34219,6.00029c-.07589,1.47828.39384,1.89156,1.73584,2.19167,7.76067,1.7357,11.9524,8.5765,9.97,16.36085-.46885,1.8411.12523,1.70093,1.45057,1.30092,10.43494-3.14948,17.45277-10.21714,22.47653-19.56492a67.295,67.295,0,0,0,4.04148-9.28532c.42877-1.202.45952-1.85233-1.20928-1.4101a5.94274,5.94274,0,0,1-4.578-.67267c-.754-.44163-1.11324-.41044-1.47465.48237C248.23574,376.23173,242.325,380.62064,234.48584,383.23186Z"/>
            <path class="cls-1" d="M136.563,363.6254c.52043-.40086.78528.06472,1.1277.319,4.12391,3.06219,8.56111,2.30464,11.46628-1.958.37068-.54388.71006-1.10905,1.3825-2.16423.15742,6.82712,1.39781,12.76874,7.01679,16.6255,5.38173,3.69388,11.387,3.7992,17.58109,2.44612-.00177,1.03937-.78491,1.14734-1.29839,1.46163-4.50425,2.75718-7.83327,6.31281-8.18128,11.91457-.07452,1.19973-.53319,1.632-1.72626,1.07808-7.41842-3.44425-13.28222-8.42107-16.20391-16.32506a5.60922,5.60922,0,0,1-.41226-2.89259c1.34245,1.65132,1.948,3.47806,3.11005,4.97916a36.75472,36.75472,0,0,0,10.32876,8.93522c1.04.62766,1.5779.58,1.91333-.67527a10.7866,10.7866,0,0,1,2.65778-4.11739,40.47947,40.47947,0,0,1-6.55624-2.86873c-4.4597-2.747-8.05815-6.25971-10.0608-11.19243-.4381-1.07907-.77454-1.64626-2.06954-.86788a6.02034,6.02034,0,0,1-4.60736.45232c-1.03888-.25318-1.23864.11151-.92014,1.017,4.7224,13.42559,11.9448,24.583,26.39785,29.23737,1.583.50976,2.15688.57668,1.63941-1.4618a12.73408,12.73408,0,0,1,10.0087-16.12611c1.47789-.31567,1.84751-.81682,1.74225-2.35321a5.26253,5.26253,0,0,1,10.41245-1.528c.20563,1.31312.08776,1.66906-1.17715,3.22122-.54052-1.89982-2.74348-2.17942-3.32046-4.16323-.24415-.83938-1.5429-.589-2.26925.21838-1.41621,1.57411-.81577,3.99837,1.49207,5.23779a16.14351,16.14351,0,0,1,4.68261,3.44951c3.06615,3.4943,3.5923,7.99351,1.38356,11.68293a9.46758,9.46758,0,0,1-10.48954,4.34387A7.63256,7.63256,0,0,1,175.93846,391.51a4.28622,4.28622,0,0,1,5.3098-2.61981c2.01847.56427,2.73156,2.12277,2.1536,4.66385-.37366,1.64282-.82826,3.43319,1.07649,4.38453,1.80083.8994,3.35509-.03926,4.65906-1.29539a5.19491,5.19491,0,0,0,1.30216-5.606,9.41512,9.41512,0,0,0-12.3717-6.20705c-5.22639,1.96922-7.93694,8.23972-5.718,13.15128.9065,2.00649,2.45456,3.5472,4.03891,5.57294a25.39439,25.39439,0,0,1-7.67922-1.054c-12.98988-3.0005-21.31666-11.41835-26.59108-23.24324a76.53165,76.53165,0,0,1-5.51138-15.66046Z"/>
            <path class="cls-1" d="M341.39,176.38906a51.45638,51.45638,0,0,0,6.77865,2.994,13.15156,13.15156,0,0,0,9.63872-.85055c.74849-.34539,1.54661-1.03347,1.706.51506.91376,8.87575-.63532,17.01511-7.09059,23.68163a3.02123,3.02123,0,0,1-1.15448.721,38.25914,38.25914,0,0,0,4.5312-10.903,61.64494,61.64494,0,0,0,.82232-7.60618c.0999-1.28169-.219-1.88593-1.63-1.43392a5.52874,5.52874,0,0,1-3.1233.06795c-1.699-.4586-1.67467.36084-1.45109,1.62663,1.27257,7.205.15292,13.89583-4.426,19.79467-.4105.5288-.82576,1.04534-.05049,1.464,2.05877,1.1117,2.8772,3.11922,3.71152,5.16063,11.60505-11.47051,16.93825-27.80452,12.3267-40.00808a14.4047,14.4047,0,0,1-7.68192,4.76239c-4.77928.9539-9.014-.13332-12.3129-3.7642-1.21559-1.33792-1.87744-1.77246-3.531-.56982a5.224,5.224,0,0,1-6.66258-7.9885,3.06447,3.06447,0,0,1,3.79639-.92921c-1.37627,1.34592-.74042,3.29316-1.85569,4.85795-.80506,1.12951.49806,1.99431,1.8133,2.01545,1.873.03013,3.31916-1.77394,3.20946-4.11511a15.265,15.265,0,0,1,.92932-6.41135,9.70175,9.70175,0,0,1,11.9412-5.88471,9.45758,9.45758,0,0,1,6.52679,10.11257,7.69882,7.69882,0,0,1-5.99253,6.28058,4.37963,4.37963,0,0,1-5.09816-3.065c-.56045-2.02478.42084-3.51932,2.81862-4.33541,1.77787-.6051,3.878-1.045,3.414-3.62461-.34638-1.92542-3.15862-3.41753-5.4274-3.117-4.01053.53121-7.11682,6.07546-5.94344,10.608a9.67094,9.67094,0,0,0,8.75615,7.269,10.01257,10.01257,0,0,0,10.06045-6.16312,15.55477,15.55477,0,0,1,1.76457-3.936,46.45476,46.45476,0,0,1,4.20524,15.473c.58764,8.33626-1.7913,15.86652-6.172,22.86848A94.35293,94.35293,0,0,1,347.11018,218.306c.54773-2.873.48912-5.53492-1.56942-7.76584-2.02893-2.19888-4.66868-2.80615-7.53715-2.674-.06764-.87786.54929-1.01315.93942-1.24759,11.56153-6.94809,11.68926-18.37462,3.91614-28.02661-.54553-.67739-1.44839-1.13891-1.43267-2.18938Z"/>
            <path class="cls-1" d="M60.85188,122.93182c6.496-9.15518,14.36392-15.25781,25.034-17.10635,10.00109-1.73266,19.74177.21789,29.43153,2.48164a2.10505,2.10505,0,0,1,.52595.32483c-6.6787,3.82417-7.51077,6.46268-4.0093,13.81039-5.94646-3.30408-11.77764-5.18649-17.95847-2.1773-5.94375,2.89375-8.95186,8.198-11.12978,14.2213-.424-2.19122-.26668-4.39214-.74936-6.53551a13.52688,13.52688,0,0,0-5.68476-8.60225c-.83732-.57007-1.57543-1.06446-.313-1.96019,6.94876-4.93054,14.4745-7.54984,23.09645-5.79189a7.47344,7.47344,0,0,1,1.27477.42147c.09921.03987.13915.2272.3206.54985a32.76626,32.76626,0,0,0-17.51032,4.14809c-1.50165.82183-2.67815,1.439-.74739,3.00222.22331.18079.30372.532.51851.73045.81326.75141.38123,2.61528,1.53939,2.60439.89131-.00835,1.74345-1.28149,2.6606-1.92428,5.34346-3.745,11.15464-5.8231,17.78426-4.87052.84972.1221,1.45052.1353,1.49425-1.01065a7.02766,7.02766,0,0,1,1.89247-4.4751c.67726-.7587.73468-1.29863-.43778-1.5105-12.56033-2.2699-24.71181-2.07133-35.57995,5.88573-.18175.13305-.35881.2728-.53431.41411-1.16721.93987-3.07694,1.78995-3.12373,3.05292-.06244,1.68554,2.21331,1.1273,3.39272,1.70744,6.04279,2.97231,9.16658,9.90166,6.86018,16.07105-.57412,1.53571-.2577,1.97895,1.097,2.64712a5.26565,5.26565,0,0,1-3.6,9.88868,3.22007,3.22007,0,0,1-1.86429-1.17868c-.5889-.83826-1.05219-1.69722.68688-1.56443,1.44825.11056,2.47007-1.32888,4.20077-.88554.93731.2401,1.13355-1.30136.62012-2.30367-.94554-1.84589-3.25459-2.20853-5.47-.77476a12.57587,12.57587,0,0,1-9.413,2.13383,9.28388,9.28388,0,0,1-7.37221-7.06108,9.51432,9.51432,0,0,1,3.6785-9.96275,7.65621,7.65621,0,0,1,10.05733.99925,4.29305,4.29305,0,0,1,.0992,5.91231c-1.62253,1.69948-3.40795,1.5915-5.49126-.29631-1.1652-1.05588-2.31336-2.34139-4.11533-1.32306-1.43085.80859-1.97914,3.1442-1.27113,5.0842a5.36483,5.36483,0,0,0,4.22024,3.66536c3.65163.68262,6.92166-.15771,9.37793-3.04945a8.968,8.968,0,0,0,1.39843-10.11245,9.45054,9.45054,0,0,0-8.09088-5.97795C65.54169,122.0444,63.49073,122.563,60.85188,122.93182Z"/>
            <path class="cls-1" d="M290.84353,109.91167c1.30153,1.626,2.53971,3.31865,2.50354,5.57431-.01377.86042.56061.89421,1.24528.79928,8.11612-1.12525,14.845,1.83048,20.93728,7.24618a12.17079,12.17079,0,0,1,2.54444-4.66672c1.0981-1.08784-.14928-1.39575-.74091-1.72972-5.3253-3.00611-10.96621-4.85551-17.17791-4.515a10.91868,10.91868,0,0,1-1.22938-.11346,6.71067,6.71067,0,0,1,4.18107-1.34094c7.62265-.70795,14.34522,1.73122,20.49,6.06938.86791.61272,1.36828,1.18428.11287,1.98607-4.47259,2.85648-6.09917,7.21361-6.35953,12.26928-.03471.67446-.09544,1.34837-.1707,2.01956-.0327.29173-.13249.57594-.29326,1.24289-2.01805-6.29017-5.0095-11.50562-10.85529-14.41375-6.1977-3.08321-11.97165-1.2771-18.13765,2.20769,1.51591-2.99775,2.72522-5.58135,1.81517-8.46627-.913-2.89425-3.06786-4.48061-6.48643-5.36975a82.595,82.595,0,0,1,12.76976-2.6918c7.63843-1.175,15.251-1.37193,22.74535,1.01192,8.52133,2.71052,14.71255,8.36812,19.99287,15.53005-1.123.5138-1.94662.02717-2.77012-.13778-9.67-1.93684-14.52691,6.99575-12.26842,13.02465,1.68188,4.48968,7.24744,7.33661,11.778,5.769a5.42887,5.42887,0,0,0,3.69891-6.38821c-.53148-2.44573-2.2535-3.2-4.33476-1.86735a11.09585,11.09585,0,0,0-1.37882,1.149c-1.89564,1.706-3.53815,1.7923-5.15986.25894a4.15679,4.15679,0,0,1-.43213-5.53635,7.64475,7.64475,0,0,1,10.85117-1.2136,9.542,9.542,0,0,1-6.78635,16.94326,13.65008,13.65008,0,0,1-6.72023-2.358c-1.55671-1.04853-3.18475-1.34815-4.77851-.058a2.15078,2.15078,0,0,0-.83581,2.4005c.31847,1.0451,1.07811.92763,1.99457.81026,1.31862-.16887,2.39635.86979,3.8008.96352.94969.06337.04578,1.20614-.39387,1.68294-1.21283,1.31515-3.8408,1.52585-5.677.54a5.09624,5.09624,0,0,1-2.66736-5.47506,5.68968,5.68968,0,0,1,3.44822-4.17973c1.21374-.501,1.261-1.1135.8935-2.24084-2.51064-7.70152,1.38417-14.94563,9.09469-17.04359.48064-.13078,1.19208-.02608,1.29327-.66593.10785-.68207-.58852-.97629-1.01507-1.37217-8.11631-7.53262-17.93221-9.99294-28.68766-9.47618-2.91682.14014-5.81794.63339-8.72179.99984A2.65306,2.65306,0,0,0,290.84353,109.91167Z"/>
            <path class="cls-1" d="M351.27768,256.66785a16.64484,16.64484,0,0,1,5.97871,7.6523,30.49505,30.49505,0,0,1,2.28347,16.30706c-.09037.68093.03455,1.77861-1.22246,1.11334-5.77092-3.0541-11.04662-1.383-16.20177,1.62107a7.8728,7.8728,0,0,1-1.20889.34129c4.46411-4.98877,7.65186-10.14488,7.2783-16.63877-.39552-6.8759-4.798-11.05218-10.87693-14.64142,3.28778-.24844,6.02958-.56617,8.03934-2.68553a7.36136,7.36136,0,0,0,1.5704-7.74355c.25782-.0256.46569-.106.52562-.0438,7.38379,7.6632,14.3295,15.65426,17.71225,26.01232,3.12881,9.58036,1.60293,18.8321-2.40421,27.83165-.05033.113-.23058.16817-.44.312-.89318-.967-1.01-2.27987-1.48927-3.41474a9.98689,9.98689,0,0,0-11.48784-6.13933,9.36121,9.36121,0,0,0-7.6262,9.5217,9.93146,9.93146,0,0,0,2.657,6.31108,5.4354,5.4354,0,0,0,7.85008.35395c1.816-1.72887,1.55159-3.578-.68985-4.66275a8.65419,8.65419,0,0,0-1.6922-.61388c-1.9535-.4799-3.008-1.661-2.85494-3.70728a4.14613,4.14613,0,0,1,3.90081-3.699c4.80309-.31,8.51453,4.94456,7.03008,9.95285a9.33028,9.33028,0,0,1-9.75139,6.79092c-4.43782-.15845-8.05939-3.4385-9.10859-8.26882a18.99366,18.99366,0,0,1-.27093-4.48321c.05343-2.44857-1.60274-4.19492-3.591-3.96-1.16.13706-2.18914,1.07527-1.50642,1.8735,1.00412,1.17393.60383,2.52661,1.1836,3.67345.2347.46418,1.0312.95363.28486,1.51459a1.85544,1.85544,0,0,1-1.73361-.02182,5.24453,5.24453,0,0,1-3.08041-5.2779,4.87441,4.87441,0,0,1,3.81417-4.4689,5.93953,5.93953,0,0,1,5.12361,1.06467c.77241.64292,1.18585.7347,1.96635-.15349,5.68237-6.46659,13.71954-6.673,19.94671-.60455.20907.20376.43946.3857.88271.77192a20.94741,20.94741,0,0,0,1.46268-7.06351c.73758-10.54318-3.211-19.53232-9.3058-27.788-1.06933-1.44845-2.27062-2.79881-3.38-4.21865-.75617-.96775-1.37222-1.20633-1.73928.24409a4.311,4.311,0,0,1-1.76391,2.80192c-2.4364,1.31977-1.3973,2.41-.301,4.0565a23.97134,23.97134,0,0,1,3.50526,17.68049c-.28013,1.72986-.61046,3.02374,1.892,2.17609a4.0129,4.0129,0,0,1,1.56791-.04853c2.78532.23663,2.70265.24949,2.56377-2.68217A33.31154,33.31154,0,0,0,351.27768,256.66785Z"/>
            <path class="cls-1" d="M223.47273,56.36891c17.75478,1.38266,28.7989,10.94241,35.19418,26.59219a103.9783,103.9783,0,0,1,4.64569,13.92567c-2.29028-2.02753-4.77237-3.15445-7.79357-2.427-2.92954.70538-4.54882,2.96752-6.37594,5.92628-.00223-6.99077-1.27342-12.8738-6.88537-16.76672-5.38558-3.73592-11.37888-3.7492-17.54744-2.495-.06723-.98789.71542-1.10116,1.23634-1.41962,4.58036-2.8002,7.91579-6.44151,8.22675-12.13025.055-1.00557.49041-1.39665,1.44588-.95773,8.03288,3.69021,14.33834,9.01249,16.83863,17.90425a3.60086,3.60086,0,0,1,.00961.90946c-.69175-.25985-.87771-.85043-1.15946-1.3655-2.90233-5.306-7.2601-9.115-12.40118-12.14559-.90381-.53278-1.412-.67347-1.71156.5409a7.398,7.398,0,0,1-.81131,1.84913c-1.46355,2.55829-1.45078,2.4959,1.18646,3.64074,6.06941,2.63481,10.86546,6.64964,13.49939,12.88263.44676,1.05718.82163,1.644,2.05148.90135a5.93241,5.93241,0,0,1,4.39042-.47514c1.19645.25356,1.58231-.00093,1.16523-1.15332C254.1339,77.55338,247.498,66.79008,234.26721,61.711c-1.18089-.45335-2.6698-1.49721-3.56741-.91918-1.021.65749.19707,2.15609.32318,3.2989.79443,7.19919-3.53543,13.24035-10.714,14.53436-1.51938.27389-1.45359.99236-1.39077,2.16235a5.51756,5.51756,0,0,1-4.12,5.944,5.32838,5.32838,0,0,1-6.04917-3.19085,4.54824,4.54824,0,0,1-.33912-2.41929,1.761,1.761,0,0,1,.85953-1.50831c.85659-.38969.89117.55326,1.19676.9686.71757.97529,1.85107,1.43682,2.44413,2.717.6406,1.38286,1.95956.59652,2.63826-.46653,1.06388-1.66645.19867-3.80411-2.03986-4.96716a12.61549,12.61549,0,0,1-6.67588-7.25577,9.39422,9.39422,0,0,1,3.09355-10.32409,9.49551,9.49551,0,0,1,10.776-.77594,7.58744,7.58744,0,0,1,3.18535,8.8465,4.23575,4.23575,0,0,1-5.38759,2.82107c-1.98843-.62062-2.73056-2.16981-2.08946-4.7502.40438-1.62765.7037-3.33687-.92891-4.243-1.79513-.99642-3.50173-.10885-4.87422,1.23592-1.786,1.74994-2.04476,4.277-.77938,6.8942a9.39626,9.39626,0,0,0,12.94614,4.44449,9.89688,9.89688,0,0,0,4.21908-13.47825C226.04236,59.63286,224.77659,58.16777,223.47273,56.36891Z"/>
            <path class="cls-1" d="M190.00345,79.14058c1.74128,2.117,1.69914,3.98813.18851,5.78525a5.17961,5.17961,0,0,1-6.698,1.18633,5.42181,5.42181,0,0,1-2.59091-5.3897c.13291-1.36274-.20651-1.82248-1.52756-2.08865-7.79643-1.57093-12.09161-8.40092-10.28131-16.16113.12542-.53759.68292-1.179.12669-1.66919-.52749-.46488-1.13.06833-1.679.23615-10.76487,3.29-17.81352,10.73707-22.78492,20.46576a56.21932,56.21932,0,0,0-4.02148,9.96633c2.29557-.3743,4.45891-.72319,6.45279.47432,1.01007.60665,1.14916-.26173,1.38961-.82639,2.99161-7.02544,8.395-11.35971,15.46-13.792,1.037-.357,1.227-.63649.501-1.47414a10.23988,10.23988,0,0,1-1.302-1.82526c-1.46964-2.736-1.44547-2.734-4.16868-.96987a30.696,30.696,0,0,0-10.64051,11.10027,9.48146,9.48146,0,0,1-.61744.93836c-.028.03946-.14334.017-.35559.03456-.34481-1.32295.33087-2.47142.81922-3.547C151.471,74.5431,156.943,69.84807,163.89423,66.732c.73194-.3281,1.59313-.62028,1.65617.5882.33912,6.50226,4.48385,10.20142,9.59435,13.22077.11237.06638.16858.22771.47472.66247-6.4439-1.2978-12.55361-1.39371-18.02743,2.36089-5.67708,3.89405-6.90649,9.82548-7.0205,16.30684-5.75811-6.84807-8.34218-7.3308-14.43654-2.51368A127.25013,127.25013,0,0,1,140.78015,83.852c2.67236-6.51235,6.0033-12.63,11.21273-17.50439,6.3324-5.92518,14.19072-9.13838,24.15521-9.98979-.52229,1.60028-1.8857,2.52267-2.74631,3.793a9.59438,9.59438,0,0,0-.57032,10.45309,9.35877,9.35877,0,0,0,8.80324,5.26247,9.73034,9.73034,0,0,0,9.019-7.76485,5.42635,5.42635,0,0,0-4.26008-6.20341c-2.15671-.32678-3.327.67437-3.27074,2.85638a8.74877,8.74877,0,0,0,.29937,1.76679c.56889,2.39654-.23468,4.11518-2.21127,4.68128a4.28041,4.28041,0,0,1-5.33967-2.915c-1.61962-5.31468,2.395-10.27583,8.222-10.08935a9.54533,9.54533,0,0,1,7.69251,14.9015,13.38617,13.38617,0,0,1-5.56292,4.78209c-2.2037,1.10079-2.9875,3.0859-2.06889,4.78581a1.89131,1.89131,0,0,0,1.73167,1.23749c.78054-.02861,1.0586-.50856,1.33572-1.24281C187.74651,81.271,189.70389,81.05611,190.00345,79.14058Z"/>
            <path class="cls-1" d="M52.66318,241.78591c-.02062.44546-.01586.89375-.06574,1.33591-.58531,5.18983,2.35058,8.72383,7.56672,9.09381.5683.04032,1.13792.06224,2.35323.12726-5.68469,3.48007-10.02044,7.31285-10.811,13.83124-.77413,6.383,2.38865,11.40349,5.7572,16.36958-1.06977.59769-1.63-.06472-2.22849-.38765-4.20651-2.27-8.51953-2.88607-12.9463-.74012-1.37269.66541-2.037.56743-2.16307-1.09262-.58805-7.7408.74076-14.96829,5.57611-21.28424.35507-.46379.67529-1.264,1.32955-.91731.84076.44548-.03857,1.11653-.22611,1.49075a34.14908,34.14908,0,0,0-3.61221,15.20613c-.01275,1.34632.0787,2.27687,1.8177,1.64508a4.42147,4.42147,0,0,1,2.89093-.023c1.63949.539,1.68349-.11443,1.45216-1.51368-1.201-7.26449-.19763-14.07,4.54722-19.99141.56029-.69919.56772-1.038-.26894-1.52544A7.18627,7.18627,0,0,1,50.315,248.527c-9.64383,5.353-16.39475,26.323-12.80133,39.64949.85767.20277,1.16437-.556,1.6146-.98708,5.75773-5.51282,14.2086-5.16987,19.3055.96211,1.09683,1.31953,1.60743.60515,2.4921.02742a5.83911,5.83911,0,0,1,7.088.494,5.415,5.415,0,0,1,.53674,6.66176,4.38951,4.38951,0,0,1-1.82555,1.62275c-.7008.3351-1.49912.6588-2.11554.10318-.608-.548.23279-1.03685.37683-1.56795.33048-1.21858.24267-2.47179,1.18008-3.62649.57743-.71121-.40547-1.5874-1.44039-1.75854-2.00462-.33149-3.741,1.36462-3.63787,3.82986a15.38134,15.38134,0,0,1-1.26758,7.24527,9.53194,9.53194,0,0,1-12.06407,5.10472,9.21039,9.21039,0,0,1-5.87012-11.03216c.87595-3.13,4.285-5.57418,7.31991-5.16938a3.7979,3.7979,0,0,1,3.51824,3.52964A3.09516,3.09516,0,0,1,50.29873,297.37c-1.60278.45115-3.34913.8042-3.804,2.7131-.33975,1.426.59805,2.4217,1.70678,3.16884a5.22077,5.22077,0,0,0,5.74967.29c4.26545-2.345,5.44-9.19258,2.33426-13.3053a9.98573,9.98573,0,0,0-16.77107,1.39953c-.74544,1.45844-1.25752,3.03612-1.87637,4.55738-.85629-.20858-.875-.96794-1.13133-1.57073-5.7669-13.55934-4.37078-26.34912,3.98563-38.46994A127.7921,127.7921,0,0,1,51.77,242.40089a4.05953,4.05953,0,0,1,.92485-.5763Z"/>
            <path class="cls-1" d="M108.90229,144.67154a2.22327,2.22327,0,0,1,1.37063-1.12945c5.245-1.90624,10.43052-3.92167,14.07325-8.48372.64859-.81229,1.17511-.42089,1.61525.16591,1.14154,1.522.82732,2.95309-.3982,4.25882-1.10232,1.17447-2.5846,1.74411-4.51727,2.499,5.41419,1.4855,10.22856,3.37658,15.43593,3.65323a11.752,11.752,0,0,0,5.72949-.95116c3.28806-1.55619,3.61787-5.01386.69914-7.187a6.13,6.13,0,0,0-5.75963-1.02232c-.92225.29637-1.83952.89144-1.57988,2.13557a1.89683,1.89683,0,0,0,2.29748,1.6349c1.42521-.15458,3.05844-.55616,3.27092,1.58028.12549,1.26169-1.76375,2.15547-3.7778,1.92841a5.45067,5.45067,0,0,1-5.02279-4.68656,5.53863,5.53863,0,0,1,3.91709-5.65347,9.74314,9.74314,0,0,1,6.625.36305c1.335.49066,1.759.44013,1.99029-1.10423a9.4976,9.4976,0,0,1,3.29907-6.23308,5.30782,5.30782,0,0,1,7.18151.31022,5.52813,5.52813,0,0,1,.16185,7.39368c-.763.84933-1.68934,1.72334-2.89984.86941-1.22737-.86586-.77365-1.94246-.046-2.93735.85726-1.172,1.55557-2.44982-.03186-3.47757-1.45961-.945-2.40434.27451-3.17228,1.25612a5.90675,5.90675,0,0,0-1.24233,4.87107c.69543,3.66869,3.71183,4.86435,6.68559,2.60341a10.96308,10.96308,0,0,0,2.3555-2.39685c3.4385-4.94117,4.05042-10.81882,5.73407-16.83505-1.39.8633-2.28745,1.53289-3.27807,2.00834a3.74872,3.74872,0,0,1-4.062-.09874,2.119,2.119,0,0,1-1.00719-2.1221c.169-.87589,1.03414-.698,1.66627-.81531,4.60211-.85453,8.19672-3.58513,11.78241-6.3278a22.64576,22.64576,0,0,1,3.067-2.149c-4.4264,6.55625-5.14249,14.3765-7.78909,21.49974a23.79961,23.79961,0,0,1-5.79757,9.27527c-2.11031,1.99432-4.54268,3.2101-7.55482,2.65825a1.01528,1.01528,0,0,0-1.36049.72529c-1.89219,4.74963-6.08407,5.64882-10.4667,6.024-5.03509.431-9.82283-.98631-14.61914-2.25587C118.75346,145.2685,114.01455,144.09341,108.90229,144.67154Z"/>
            <path class="cls-1" d="M315.674,253.66077c-.12135-1.555-.53807-3.098-.02522-4.6632a3.4046,3.4046,0,0,1,2.15663-2.4019,2.03137,2.03137,0,0,1,2.12808.2725c.62161.55158.01878,1.11221-.156,1.635-1.5546,4.64861-1.0246,9.34745-.37375,14.05136a13.26068,13.26068,0,0,1,.18394,2.96172c-3.44915-6.60756-9.3518-11.0404-14.072-16.49059a26.5389,26.5389,0,0,1-4.64753-7.13926c-1.58375-3.81451-2.48521-7.61941.54142-11.21416a.91449.91449,0,0,0-.07273-1.37367c-2.73439-3.18516-2.117-6.67635-.85978-10.19059a23.71507,23.71507,0,0,1,3.80528-6.60548c4.82957-6.16247,11.56668-10.68661,15.48645-17.78033-.24646,1.97031-.50544,3.93916-.73676,5.91126-.45028,3.83867-.5161,7.66167.942,11.32736.50657,1.27346-.19754,1.46548-1.10517,1.53248a2.88146,2.88146,0,0,1-3.175-2.27433,9.65172,9.65172,0,0,1,.02885-4.77849c-.34027.0571-.59045.02128-.69858.1286-2.82242,2.8008-5.703,5.54841-8.41565,8.45266a14.22164,14.22164,0,0,0-3.74643,7.31678,4.26891,4.26891,0,0,0,1.27469,4.309,4.04944,4.04944,0,0,0,4.46738.39649,6.22827,6.22827,0,0,0,3.82665-4.42331,1.97439,1.97439,0,0,0-1.20053-2.58282c-1.18714-.45819-1.81159.29815-2.33506,1.19617a3.46792,3.46792,0,0,0-.21893.39332c-.51032,1.21716-1.10429,2.65417-2.71127,1.782-1.51687-.82326-1.03557-2.303-.394-3.57565a5.32774,5.32774,0,0,1,9.87843,3.96657,8.89389,8.89389,0,0,1-3.22356,4.77744c-1.66275,1.19992-1.26488,1.90926.07675,2.95753a9.195,9.195,0,0,1,3.24773,5.02161,5.4046,5.4046,0,0,1-3.445,6.51049,5.54888,5.54888,0,0,1-6.7973-3.34947c-.4151-1.15467-.68658-2.50239.76283-3.12862,1.37524-.59417,2.01175.44273,2.507,1.55517.53919,1.21093,1.19092,2.48495,2.82628,1.72323,1.69239-.78827,1.1766-2.208.6509-3.49117a5.80077,5.80077,0,0,0-2.45231-2.85562c-1.70462-1.00829-3.50275-1.601-5.27077-.30162-1.65688,1.21773-1.75739,2.99142-1.38119,4.88526a15.44474,15.44474,0,0,0,4.05876,7.4141c2.62626,2.86983,5.41036,5.59519,8.12678,8.38254Z"/>
            <path class="cls-1" d="M228.09152,351.86853c3.80941-4.96955,5.19157-10.92444,6.79912-16.78447,1.25924-4.59017,2.79594-9.04946,5.91737-12.76955,2.36838-2.82261,5.09974-4.92768,9.09854-4.26511a1.071,1.071,0,0,0,1.36812-.78981c1.63082-4.31069,5.35773-5.39827,9.35364-5.889,5.10458-.62681,10.0147.59318,14.87795,1.93556,5.09,1.405,10.19211,2.637,15.87721,2.00467a8.34933,8.34933,0,0,1-2.71947,1.45309c-4.8108,1.93019-9.68431,3.78726-13.0593,8.04986-.66057.8343-1.24793.68741-1.79571-.07925a2.97387,2.97387,0,0,1,.34005-4.08937,12.44408,12.44408,0,0,1,4.0823-2.54337c-6.09757-1.66638-11.93795-4.59388-18.53727-3.411-3.2046.5744-5.143,2.5603-4.86432,4.69579.32106,2.46051,3.29888,4.58881,6.239,4.49836a4.32929,4.32929,0,0,0,2.3346-.71284,1.68515,1.68515,0,0,0,.76041-1.95408,1.60251,1.60251,0,0,0-1.59632-1.33376c-.59965-.01388-1.20089.01778-1.80075.0444-.99261.044-1.84647-.192-2.04465-1.3048-.21034-1.18148.49755-1.77955,1.53169-2.14314a5.61881,5.61881,0,0,1,6.85264,3.25018,5.36258,5.36258,0,0,1-3.20839,6.79477,9.00174,9.00174,0,0,1-6.82305-.23173c-1.72281-.7048-2.05995-.10026-2.262,1.39823a9.07328,9.07328,0,0,1-2.94671,5.68289,5.3606,5.3606,0,0,1-7.35822-.02546,5.49882,5.49882,0,0,1-.30163-7.38385c.80655-.96813,1.819-1.82233,3.07643-.86344,1.1997.91484.61057,1.99534-.12115,2.95384-.83011,1.08744-1.5198,2.2309-.0424,3.278,1.58386,1.12245,2.49707-.16126,3.34623-1.1847a5.703,5.703,0,0,0,1.24446-4.00786c-.08762-1.80058-.6171-3.445-2.411-4.27522-1.74688-.80847-3.26821-.062-4.5737,1.024-3.08992,2.57043-4.49054,6.1254-5.477,9.87967-.75493,2.87319-1.4621,5.75892-2.27343,8.967,1.77875-.73442,2.84631-1.88426,4.34574-2.21989a3.03176,3.03176,0,0,1,3.66161,1.43309c.557.945.63582,1.68152-.7639,1.90364-5.43863.86317-9.55162,4.16761-13.65316,7.48182-.75045.60642-1.36779,1.42328-2.44262,1.4983Z"/>
            <path class="cls-1" d="M121.56326,318.12648a14.11487,14.11487,0,0,1,3.76128,2.19021,3.15142,3.15142,0,0,1,1.21586,3.39038c-.55714,1.79238-1.46391,1.99956-2.72014.60185-3.48926-3.88225-8.15166-5.77365-12.84883-7.61271a10.38989,10.38989,0,0,1-2.24275-1.14033c7.99712.7254,15.23855-2.65042,22.8526-3.91748a24.30238,24.30238,0,0,1,10.50288.27453c2.87792.78552,5.26058,2.22848,6.37418,5.184.26794.71114.54817,1.12758,1.4445.96431,3.69758-.67344,6.34036,1.2013,8.6627,3.74024a23.375,23.375,0,0,1,4.46519,7.50978c2.7307,7.09695,3.47321,14.88609,8.02847,21.802a4.89322,4.89322,0,0,1-2.53456-1.38276c-3.92148-3.057-7.85989-6.091-12.97669-6.87892-1.25763-.19369-1.24631-.94345-.81452-1.77468a3.01743,3.01743,0,0,1,3.59281-1.58259c1.60117.28172,2.69866,1.503,4.53057,2.29033-1.61042-5.5872-2.17527-11.08526-5.13541-15.84282a15.29089,15.29089,0,0,0-1.34194-1.80747c-2.34187-2.755-5.15062-3.352-6.96548-1.50374-2.06534,2.10344-1.76,6.264.62025,8.33149.86042.74739,1.79172,1.19847,2.79943.27933a1.87183,1.87183,0,0,0,.16544-2.64539c-.75938-1.17856-2.03714-2.36325-.27633-3.639,1.117-.80913,2.82983.3751,3.66668,2.40474a5.36916,5.36916,0,0,1-1.645,6.475,5.52525,5.52525,0,0,1-6.86545-.48031,9.06932,9.06932,0,0,1-2.89122-5.481c-.2607-1.70757-.55181-2.29749-2.44969-1.52219a8.81485,8.81485,0,0,1-6.18131.31773,5.45693,5.45693,0,0,1-3.92425-6.02743,5.56847,5.56847,0,0,1,6.1794-4.37771c1.25063.16812,2.57474.5959,2.521,2.06777-.05813,1.59134-1.39313,1.70845-2.69819,1.5601-1.3568-.15421-2.749-.1113-2.84818,1.65317-.09219,1.63927,1.27532,2.06758,2.57374,2.28042a6.11218,6.11218,0,0,0,4.85793-1.35116c2.86869-2.24224,2.41042-5.65929-.92513-7.1542a10.86357,10.86357,0,0,0-4.16219-.89106C132.1702,314.25686,126.96564,316.52889,121.56326,318.12648Z"/>
            <path class="cls-1" d="M84.31872,206.54054a30.74275,30.74275,0,0,1-.03012,3.82593c-.22393,1.67793-1.0009,3.04524-2.9421,3.1395-1.03452.05023-2.10744-.0666-1.50464-1.62331,2.05417-5.30495,1.106-10.65864.26-16.01a4.88689,4.88689,0,0,1-.07229-1.85626c1.10321,1.72192,2.12955,3.49937,3.32511,5.15457,2.78476,3.85551,6.43873,6.92029,9.64146,10.39767,3.084,3.34847,5.76781,6.9411,6.92716,11.43621.73913,2.86575.76868,5.67482-1.33675,8.082a1.17108,1.17108,0,0,0-.08561,1.76736c2.72288,3.207,2.07644,6.69471.76228,10.19146a30.26263,30.26263,0,0,1-7.26194,10.4712c-4.422,4.47862-9.12166,8.72776-12.13488,14.49789.32425-2.30828.693-4.61142.9625-6.92606a22.76062,22.76062,0,0,0-.885-10.67433c-.55066-1.50019.186-2.26412,1.77971-1.89073a3.3353,3.3353,0,0,1,2.58979,3.28888c.11175,1.17366.02187,2.36656.02187,4.23244,4.76418-5.14271,10.493-8.78045,12.43254-15.52251.52862-1.83755.57472-3.78753-1.13831-5.18741-1.63945-1.33979-3.42951-.99214-5.06049-.03967a5.78887,5.78887,0,0,0-3.27134,5.04809,1.66106,1.66106,0,0,0,1.30466,1.6475,1.73317,1.73317,0,0,0,1.99093-.67769,5.26551,5.26551,0,0,0,.50189-.99792c.5319-1.1243,1.14649-2.40195,2.63824-1.72289,1.49307.67964,1.2287,2.03476.66419,3.31038a5.58164,5.58164,0,0,1-7.12151,3.03689,5.64786,5.64786,0,0,1-2.66664-7.4776,10.28287,10.28287,0,0,1,3.4084-4.40432c.97837-.7328,1.00406-1.21729.02409-2.04209-2.04235-1.719-3.74459-3.71042-3.86976-6.588a5.27618,5.27618,0,0,1,4.14285-5.65129,5.67094,5.67094,0,0,1,6.13889,3.51974c.47106,1.21426.63264,2.489-.70155,3.15818-1.38876.69654-2.01728-.45845-2.52987-1.50388-.572-1.16666-1.09515-2.57335-2.75985-1.82407-1.82079.81958-1.23517,2.35094-.66511,3.68557A5.94677,5.94677,0,0,0,90.7,226.848a4.4877,4.4877,0,0,0,4.72658.00424c1.47861-.99863,1.69326-2.55209,1.551-4.21059a11.65928,11.65928,0,0,0-1.44-4.23749C94.10723,215.56847,87.53794,208.60182,84.31872,206.54054Z"/>
            <path class="cls-1" d="M290.99524,144.65669c-5.95481-.63427-11.43722,1.018-16.95381,2.46072-5.11055,1.3365-10.24489,2.44171-15.55562,1.2001-3.205-.7493-5.9683-2.0896-7.17442-5.46257-.27519-.76957-.73489-.96077-1.56-.81769-3.20883.55648-5.66725-.917-7.83839-3.06682-3.1914-3.16014-4.9393-7.14284-6.25175-11.32007-1.93387-6.155-2.86842-12.65791-6.30992-18.46187q2.4721,1.71963,4.94458,3.43882c3.03668,2.10545,6.13185,4.08119,9.92474,4.53665,1.38973.16687,1.32622.94924.76867,1.9063-1.11679,1.917-2.81788,1.802-4.52927,1.14091a30.50409,30.50409,0,0,1-3.54473-1.99275c1.62533,5.72747,2.22608,11.2139,5.20186,15.96834a10.23758,10.23758,0,0,0,3.58679,3.66745,3.71329,3.71329,0,0,0,5.74263-2.23258,6.45875,6.45875,0,0,0-1.95411-6.74306c-.79735-.62755-1.57306-.88345-2.42417-.15913a1.701,1.701,0,0,0-.38237,2.56582c.08848.12125.16137.2538.24883.37583.80107,1.1175,1.87733,2.409.11994,3.39606-1.66446.93486-2.6371-.53613-3.35867-1.73485a5.42826,5.42826,0,0,1,1.14462-6.94907,5.357,5.357,0,0,1,7.19283.44014,9.43722,9.43722,0,0,1,2.82291,5.7534c.17481,1.31289.513,1.814,2.02213,1.23672a9.472,9.472,0,0,1,7.04509-.24718,5.35336,5.35336,0,0,1,3.18067,6.81058,5.67708,5.67708,0,0,1-6.90175,3.18372c-.942-.31924-1.6391-.862-1.50586-1.94134.1492-1.20924,1.00843-1.57116,2.11894-1.49417.52361.03631,1.04568.1127,1.56951.12494a1.68787,1.68787,0,0,0,1.7836-1.40282,1.61314,1.61314,0,0,0-.76834-1.938,5.31981,5.31981,0,0,0-5.57181.03864c-1.72722.91342-3.14332,2.25519-2.97355,4.39763.16431,2.07436,1.78533,3.0002,3.54605,3.64675a13.10716,13.10716,0,0,0,5.7824.60114c4.82371-.43947,9.31786-2.18516,14.28034-3.49014-1.58892-1.02275-3.14164-1.42985-4.2228-2.59465a3.09708,3.09708,0,0,1-.62679-3.904c.48471-.87974,1.063-1.48649,2.01291-.31175,3.51078,4.34148,8.526,6.24058,13.51054,8.15778A2.9221,2.9221,0,0,1,290.99524,144.65669Z"/>
            <path class="cls-1" d="M52.70388,217.92525c.24112.06021.35939.20261.27368.45179-.01335.03879-.118.04614-.18047.068q-.02469-.27469-.04888-.5496Z"/>
            <path class="cls-1" d="M136.60714,363.59666c-.2864-.013-.37069-.19308-.31353-.43387.01148-.04847.25743-.11041.29179-.07245.15187.1677.22336.36714-.02192.53495Z"/>
            <polygon class="cls-1" points="228.122 351.834 228.094 351.93 228.093 351.867 228.122 351.834"/>
            <polygon class="cls-1" points="341.426 176.403 341.323 176.388 341.39 176.392 341.426 176.403"/>
            <path class="cls-1" d="M52.69485,241.82459a.73758.73758,0,0,1,.0998-.15267c.01926-.01836.07463.00121.1136.00358-.08128.03733-.16257.07463-.24447.11116Z"/>
            <path class="cls-1" d="M368.84836,334.328a11.02984,11.02984,0,0,0-1.37819-6.55558c-.62632-1.14228-.63364-1.7572.938-1.76458a12.62372,12.62372,0,0,0,7.64357-2.84086c.33656-.2542.6264-.75138,1.13283-.53421.53482.22928.31869.7748.29929,1.18332a14.495,14.495,0,0,0,2.59581,8.8817c.27462.41449.81816.82576.54148,1.38188-.35352.71058-1.07145.312-1.607.28866a14.82247,14.82247,0,0,0-8.392,1.97379c-.48259.28447-.98019.97713-1.56334.64278-.71859-.412-.1222-1.21151-.20387-1.83334A5.92134,5.92134,0,0,1,368.84836,334.328Zm3.74464-1.95086c.74662-1.1148,2.88469.1372,2.90338-1.66517.00978-.93912.0286-2.84689-1.51283-2.84538-.80018.00077-2.74691-.1451-2.65483,1.46961C371.37945,330.22582,371.077,331.70237,372.593,332.37711Z"/>
            <path class="cls-1" d="M368.54855,122.32831A15.63588,15.63588,0,0,0,380.05,125.5801c1.05648-.12021.94163.4913.49873,1.0841a15.30831,15.30831,0,0,0-3.02913,10.785c-1.2098.18185-1.67131-.77764-2.37482-1.22627a13.04469,13.04469,0,0,0-6.74687-2.19934c-.57773-.01682-1.80934.11519-1.25867-.88435C368.914,129.91759,369.16648,126.50364,368.54855,122.32831Zm7.29681,6.98359c-.74723-1.51891-2.35737-1.30838-3.30166-1.34891-1.76425-.07573-1.082,1.88858-1.18533,2.76073-.19776,1.66922,1.83471,1.39316,2.62928,1.44819C375.76517,132.295,374.70316,130.12467,375.84536,129.3119Z"/>
            <path class="cls-1" d="M18.27108,334.68328c2.88442-3.71624,4.29822-7.17216,3.92587-11.18883-.0978-1.05515.44587-1.2381,1.18859-.62574a13.27686,13.27686,0,0,0,8.45642,3.17806c1.01314.01624,1.12887.52259.685,1.31121a12.54749,12.54749,0,0,0-1.47553,8.677c.17108.93062-.17843,1.37754-1.0853.77712C26.62136,334.59753,22.93214,333.98805,18.27108,334.68328Zm7.34186-7.13384c-1.29249.74733-1.29952,2.23445-1.29894,3.11815.00115,1.719,2.05864,1.42257,2.93733,1.38918,1.47684-.05607,1.301-2.06262,1.24948-2.91792C28.423,327.84751,26.48973,328.45817,25.61294,327.54944Z"/>
            <path class="cls-1" d="M199.89912,439.15062c-1.93688-4.4346-4.54772-7.60069-9.21367-9.53035,4.20557-1.473,7.29389-3.60185,8.94775-7.75938a15.67108,15.67108,0,0,0,9.55024,7.709C204.54736,431.50622,201.818,434.59646,199.89912,439.15062Zm2.697-9.35563c-.90859-.80043-1.78665-2.175-2.64465-2.16254-.87572.01269-2.45283,1.41546-2.42411,2.15954.04107,1.06457,1.3397,2.63452,2.34533,2.60451C200.766,432.36983,201.61326,430.80106,202.59612,429.795Z"/>
            <path class="cls-1" d="M190.91928,30.4413a17.05074,17.05074,0,0,0,8.996-9.59971c1.8939,4.5159,4.53343,7.60944,8.879,9.49594-2.55537,1.35262-4.8647,2.31707-6.58492,4.211-.837.9215-1.19243,2.7173-2.36207,2.689-.76559-.01848-1.48853-1.664-2.23652-2.57594C195.94158,32.62668,193.58523,31.63607,190.91928,30.4413Zm11.71805-.251c-1.08774-.89986-1.67117-2.6176-2.79495-2.50125a3.12186,3.12186,0,0,0-2.37991,2.592,3.30357,3.30357,0,0,0,2.47417,2.15769C200.79372,32.44865,201.667,31.05854,202.63733,30.19032Z"/>
            <path class="cls-1" d="M31.30148,122.37569c-.78979,4.14338-.46314,7.55194,1.394,10.71614.38434.65487-.18944.92731-.79749.92035a12.80609,12.80609,0,0,0-8.44383,3.13859c-.84924.69354-1.35542.61763-1.25785-.62574a14.30061,14.30061,0,0,0-2.82594-9.70561c-.374-.52236-.96181-1.36526.42705-1.22486A16.37338,16.37338,0,0,0,31.30148,122.37569Zm-3.946,5.24878c-.88019,1.18946-3.03937-.13758-3.13282,1.55993-.04873.88489-.04759,2.92769,1.50111,2.96955.82386.02226,2.78914.2017,2.80254-1.33093A3.8073,3.8073,0,0,0,27.35547,127.62447Z"/>
          </g>
        </g>
        <g>
          <path class="cls-1" d="M160.04233,232.50136a14.3983,14.3983,0,0,1,.9439,3.22083,58.97506,58.97506,0,0,0,5.23974,14.36123c3.27477,5.935,8.32542,8.82242,14.9321,9.43478,3.79169.35144,7.42831.06018,10.77352-1.91526a7.13075,7.13075,0,0,0,3.92879-6.632,16.92525,16.92525,0,0,0-.4403-4.54608,7.93032,7.93032,0,0,0-7.49591-6.09334,12.1627,12.1627,0,0,0-3.78763.15868,1.51172,1.51172,0,0,1-1.779-.73215,29.88214,29.88214,0,0,1-4.72773-11.01086c-.16075-.78251.00566-.95635.84289-.90754a41.25544,41.25544,0,0,0,9.94115-.18535,9.13285,9.13285,0,0,0,4.60168-2.36112,4.18273,4.18273,0,0,0,.09839-6.45328,7.22444,7.22444,0,0,0-6.55487-1.83282c-4.11389.59887-7.86827,2.27981-11.63942,3.90965-2.7251,1.17776-2.06,1.18971-3.47368-1.03948-1.38126-2.178-2.68767-4.40349-4.0552-6.59046-.37538-.60032-.54737-1.01507.24-1.46327,5.46529-3.111,11.10139-5.7204,17.44414-6.49494,7.8528-.95891,13.4956,2.86716,15.66327,10.522,1.73079,6.112-.467,10.76446-5.07489,14.61346-1.00463.83916-2.0745,1.60394-3.14627,2.35756-.58916.41423-.54944.69216.03922,1.03461a11.73747,11.73747,0,0,0,7.66142,1.7007,4.35489,4.35489,0,0,0,2.64759-1.58661,26.09079,26.09079,0,0,0,3.19286-5.09992,51.53123,51.53123,0,0,1,5.18058-8.18375c2.22129-2.7614,4.84257-4.63588,8.5397-5.01568,5.23894-.53823,10.0522-.05317,13.82829,4.14094a25.52248,25.52248,0,0,1,5.27995,9.42621,34.27494,34.27494,0,0,1-1.06575,24.83674c-4.05176,9.36206-16.53924,13.14554-24.64632,7.45875a10.70223,10.70223,0,0,1-4.76921-8.62069,26.16193,26.16193,0,0,1,1.51584-9.73482c.66108.35284.63134.98737.81388,1.46156a11.16135,11.16135,0,0,0,5.27808,6.42274c3.05521,1.54167,6.09079.8813,8.99887-.35505,6.55741-2.78782,9.77228-7.91016,9.98978-14.95717a32.584,32.584,0,0,0-.57725-6.91082c-1.05709-5.74617-7.779-7.37279-11.857-3.60561a36.90547,36.90547,0,0,0-7.49776,10.202,7.83617,7.83617,0,0,1-6.11469,4.38473,30.41153,30.41153,0,0,1-6.26843.44062c-1.19381-.06048-1.18615.3449-.77672,1.26548a25.91515,25.91515,0,0,1,1.986,15.62016c-1.78144,9.46641-9.7481,15.35391-19.30963,14.50361-4.655-.414-9.08183-1.34724-12.8822-4.24176a29.48955,29.48955,0,0,1-9.57337-13.35342,43.522,43.522,0,0,1-2.57062-20.48643C159.60014,233.192,159.53337,232.76793,160.04233,232.50136Z"/>
          <path class="cls-1" d="M195.00871,194.88594c.82162,1.08745,1.568,2.19286,2.43142,3.19773,3.67893,4.28161,8.15783,6.98489,14.003,6.70567a21.18424,21.18424,0,0,0,11.01992-4.13866c1.25838-.86351,2.43809-1.84205,3.64865-2.77465.47078-.36271.87675-.68066,1.45032-.07581a30.45979,30.45979,0,0,1,4.72341,5.92778c.94767,1.69194.857,2.49143-.68169,3.75488a30.72258,30.72258,0,0,1-15.34592,6.53867,17.5943,17.5943,0,0,1-11.774-2.02976c-4.20975-2.45056-6.73111-6.2481-8.35-10.72416a25.697,25.697,0,0,1-1.275-5.20572C194.80816,195.69848,194.5964,195.31488,195.00871,194.88594Z"/>
          <path class="cls-1" d="M209.865,203.16016c-.39517-.02785-.57068-.297-.7897-.50494-1.96536-1.86579-3.921-3.74205-5.9048-5.58809-.5835-.543-.72834-.97824-.12129-1.63332q3.02942-3.26914,5.9761-6.6146c.52383-.59109.88966-.76226,1.54791-.10462,2.10178,2.0999,4.27125,4.13211,6.41714,6.18779.4256.40771.84819.73912.18247,1.35989-2.30141,2.146-4.56021,4.33769-6.83773,6.50935C210.17941,202.92,210.00309,203.04679,209.865,203.16016Z"/>
        </g>
      </g>
    </g>
  </g>
</svg>
